%TF.GenerationSoftware,Novarm,DipTrace,3.0.0.2*%
%TF.CreationDate,2017-05-14T18:49:05-08:00*%
%FSLAX26Y26*%
%MOIN*%
%TF.FileFunction,Copper,L2,Bot*%
%TF.Part,Single*%
%TA.AperFunction,Conductor*%
%ADD14C,0.012992*%
%TA.AperFunction,CopperBalancing*%
%ADD15C,0.025*%
%TA.AperFunction,ComponentPad*%
%ADD16R,0.062992X0.062992*%
%ADD17C,0.062992*%
%ADD18R,0.059055X0.051181*%
%ADD19R,0.051181X0.059055*%
%TA.AperFunction,ComponentPad*%
%ADD20R,0.059055X0.059055*%
%ADD21C,0.059055*%
%ADD22R,0.07874X0.07874*%
%ADD23C,0.07874*%
%ADD24R,0.03937X0.03937*%
%ADD25C,0.03937*%
%ADD26R,0.03937X0.043307*%
%ADD27R,0.043307X0.03937*%
%ADD32R,0.07874X0.023622*%
%ADD33R,0.082677X0.125984*%
%ADD34R,0.070866X0.015748*%
%ADD35R,0.098425X0.216535*%
%TA.AperFunction,ComponentPad*%
%ADD36C,0.08*%
%ADD37C,0.048*%
%TA.AperFunction,ViaPad*%
%ADD38C,0.04*%
%ADD40C,0.1*%
G75*
G01*
%LPD*%
X2385037Y1380076D2*
D14*
X2430501D1*
X2456682Y1406257D1*
Y1531257D1*
X2481682Y1556257D1*
X2547451D1*
X2556682Y1547026D1*
X2156690Y1328895D2*
X2059045D1*
X1931682Y1456257D1*
X1856682D1*
X2156690Y1252123D2*
X1977549D1*
X1931682Y1206257D1*
X2156690Y1200942D2*
X2051367D1*
X2006682Y1156257D1*
Y1081257D1*
X1906682Y981257D1*
X1831682D1*
X1781682Y1031257D1*
Y1431257D1*
X1806682Y1456257D1*
X1856682D1*
X1012932Y1900008D2*
Y1762507D1*
X1006682Y1756257D1*
X1012932Y1900008D2*
X1225433D1*
X1281682Y1956257D1*
X1756682D1*
X1831682Y2031257D1*
Y2056257D1*
X2556682Y1547026D2*
Y1731257D1*
X2456682D1*
X2431682Y1756257D1*
X2256682D2*
X1906682D1*
X1856682Y1806257D1*
Y1456257D2*
D3*
X1931682Y1206257D2*
D3*
X1856682Y1456257D2*
X1231682D1*
X1206682Y1431257D1*
X2369084Y2506257D2*
X2244084D1*
X2394084Y2031257D2*
X2256682D1*
X1012932Y2631257D2*
X1231682D1*
X1381682Y2481257D1*
X2156682D1*
X2181682Y2506257D1*
X2244084D1*
Y2193659D1*
X2181682Y2131257D1*
Y2056257D1*
X2206682Y2031257D1*
X2256682D1*
X2385037Y1354486D2*
X2454911D1*
X2481682Y1381257D1*
Y1456257D1*
X2506682Y1481257D1*
X2547648D1*
X2556682Y1472223D1*
X2156690Y1226533D2*
X2238724D1*
X2269778Y1257587D1*
Y1263837D1*
X2270860Y1264919D1*
X2385037Y1354486D2*
X2331682D1*
Y1325741D1*
X2270860Y1264919D1*
X2156690Y1303304D2*
X2232474D1*
X2270860Y1264919D1*
X1856682Y1381454D2*
X1956486D1*
X2031682Y1306257D1*
X2153738D1*
X2156690Y1303304D1*
Y1226533D2*
X2001958D1*
X1981682Y1206257D1*
Y1131257D1*
X1931879D1*
X1931682Y1131454D1*
X1106682Y2831257D2*
X1131682D1*
X1331682Y2631257D1*
X506682Y2406257D2*
X606682D1*
X631682Y2381257D1*
X2481682Y1656257D2*
Y1631257D1*
X2256682Y1406257D1*
Y1279096D1*
X2270860Y1264919D1*
X1856682Y1040488D2*
X1890913D1*
X1931682Y1081257D1*
Y1131454D1*
X1431682Y1900008D2*
Y1906257D1*
X1481682Y1856257D1*
X2281682D1*
X2481682Y1656257D1*
X2394084Y2131257D2*
X2471446D1*
X2500383Y2102320D1*
X2606682Y2181257D2*
X2556682D1*
X2531682Y2156257D1*
Y2133619D1*
X2500383Y2102320D1*
X2706682Y1931257D2*
X2606682D1*
X2506682Y2031257D1*
Y2096021D1*
X2500383Y2102320D1*
X2719084Y2406257D2*
X2581726D1*
X2481682Y2506301D1*
Y2571021D1*
X2475383Y2577320D1*
X2581682Y2656257D2*
X2506682D1*
X2481682Y2631257D1*
Y2583619D1*
X2475383Y2577320D1*
X2369084Y2606257D2*
X2446446D1*
X2475383Y2577320D1*
X2369084Y2606257D2*
X2269281D1*
X2244084Y2581060D1*
X2394084Y2131257D2*
X2281879D1*
X2256682Y2106060D1*
X1431682Y2631257D2*
X1531682Y2531257D1*
X2106682D1*
X2156486Y2581060D1*
X2244084D1*
X2981682Y2381257D2*
Y2406257D1*
X2931682Y2456257D1*
Y2531257D1*
X2906682Y2556257D1*
X2806682D1*
X2781682Y2656257D2*
X2631682D1*
X2581682D1*
X1431682Y2631257D2*
Y2656257D1*
X1656682Y2881257D1*
X1756682D1*
X1781682Y2856257D1*
Y2831257D1*
X556682Y856257D2*
X531682D1*
X506682Y881257D1*
Y1131257D1*
X531682Y1156257D1*
X556682D1*
X531682D2*
X506682Y1181257D1*
Y1656257D1*
X531682Y1681257D1*
X556682D1*
X531682D2*
X506682Y1706257D1*
Y2181257D1*
X631682Y2306257D1*
Y2381257D1*
X1831682Y881257D2*
Y556257D1*
Y531257D1*
X1856682Y506257D1*
X2156682D1*
X2231682Y581257D1*
X1111407Y1110982D2*
X1051958D1*
X1031682Y1131257D1*
Y1506257D1*
X2606682Y2181257D2*
X2706682D1*
X2731682Y2206257D1*
Y2393659D1*
X2719084Y2406257D1*
X2269182Y1262507D2*
X2270860Y1264919D1*
X506682Y2406257D2*
Y2475650D1*
X587760Y2556727D1*
X725274D1*
X912794Y2744247D1*
X1081562D1*
X1106564Y2769249D1*
Y2831139D1*
X1106682Y2831257D1*
X2981682Y881257D2*
X3181682D1*
X3206682Y856257D1*
Y481257D1*
X3181682Y456257D1*
X831682D1*
X806682Y481257D1*
Y1581257D1*
X831682Y1606257D1*
X881682D1*
X1881682Y781257D2*
X2706682D1*
X2731682Y806257D1*
X2881682Y981257D2*
X2856682D1*
X2806682Y931257D1*
X2756682D1*
X2681682Y1006257D1*
X2731682Y1406257D2*
Y1556257D1*
X2681682Y1606257D1*
X2981682Y1681257D2*
X3006682D1*
X3031682Y1706257D1*
Y1981257D1*
X3056682Y2006257D1*
Y2106257D1*
X3106682Y2156257D1*
X3131682D1*
X2881682Y1156257D2*
Y1181257D1*
X2385037Y1252123D2*
X2560816D1*
X2656682Y1156257D1*
X2856682D1*
X2881682Y1181257D1*
X2385037Y1200942D2*
X2511997D1*
X2631682Y1081257D1*
X2781682D1*
Y1206257D2*
X2806682D1*
X2831682Y1231257D1*
X2931682D1*
X2981682Y1281257D1*
X2385037Y1226533D2*
X2536407D1*
X2631682Y1131257D1*
X2931682D1*
X2981682Y1081257D1*
X2385037Y1175352D2*
X2487588D1*
X2606682Y1056257D1*
X2731682D1*
X2781682Y1006257D1*
X1931682Y1556257D2*
Y1562904D1*
X1975035Y1606257D1*
X2131682D1*
X2181682Y1556257D1*
X2256682D2*
X2181682D1*
X2156690Y1354486D2*
X2083454D1*
X1931682Y1506257D1*
X1881682D1*
X1831682Y1556257D1*
X2156690Y1277714D2*
X2010226D1*
X1981682Y1306257D1*
X1881682D1*
X1856682Y1281257D1*
X1731682Y2831257D2*
Y2706257D1*
X1831682Y2831257D2*
Y2781257D1*
X1881682Y2731257D1*
Y2698186D1*
X3106682Y1681257D2*
X3081682D1*
X3056682Y1656257D1*
Y1556257D1*
X3081682Y1531257D1*
X1731682Y664328D2*
Y606257D1*
X1781682Y556257D1*
X1931682Y664328D2*
Y631257D1*
X1881682Y581257D1*
Y556257D1*
X2369084Y2656257D2*
Y2756257D1*
X2544281D1*
X2369084D2*
Y2793856D1*
X2356682Y2806257D1*
X2331682D1*
X2256682Y2881257D1*
X2369084Y2556257D2*
D3*
X2394084Y2081257D2*
D3*
X556682Y1731257D2*
X581682D1*
X631682Y1781257D1*
X714753D1*
X2619084Y2756257D2*
D3*
X2656486Y2281257D2*
Y2281060D1*
X2306682Y2281257D2*
D3*
X2394084Y2181257D2*
Y2268659D1*
X2381486Y2281257D1*
X2581879D2*
X2381486D1*
Y2331060D1*
X2481682Y2431257D1*
X2606682Y2031257D2*
X2673612D1*
X2706682Y1998186D1*
X2581682Y2506257D2*
X2686013D1*
X2719084Y2473186D1*
X2156690Y1380076D2*
X2107864D1*
X2081682Y1406257D1*
Y1556257D1*
X1856682Y1206454D2*
Y1107417D1*
Y1206454D2*
D3*
X1531682Y681257D2*
X1481682D1*
X1381682Y581257D1*
X2156690Y1149761D2*
X2112352D1*
X2094168Y1131577D1*
Y1093772D1*
X2131682Y1056257D1*
X2181682D1*
X2281682Y956257D1*
X2156690Y1175352D2*
X2087937D1*
X2056682Y1144097D1*
Y1081257D1*
X2181682Y956257D1*
X2385037Y1149761D2*
X2438178D1*
X2456682Y1131257D1*
Y1031257D1*
X2381682Y956257D1*
X2323612Y1556257D2*
Y1598186D1*
X2381682Y1656257D1*
X1831682D1*
X1656682Y1481257D1*
X1180682D1*
X1156570Y1457144D1*
Y1381604D1*
X1200324Y1337849D1*
Y1075322D1*
X1175322Y1050319D1*
X1012804D1*
X881541Y919055D1*
Y837797D1*
X875001Y831257D1*
X2385037Y1303304D2*
X2569635D1*
X2656682Y1216257D1*
X2385037Y1328895D2*
X2479320D1*
X2506682Y1356257D1*
Y1381257D1*
X2531682Y1406257D1*
X2656682D1*
X3106682Y1781257D2*
Y1839328D1*
X3081682Y1864328D1*
X556682Y1631257D2*
X581682D1*
X631682Y1681257D1*
X681682D1*
X698218Y1697793D1*
X1031879Y2831257D2*
D3*
X506682Y2331257D2*
X506486D1*
X2294084Y2756257D2*
Y2768659D1*
X2306682Y2781257D1*
Y2768659D1*
X2294281Y2756257D1*
X1111407Y929879D2*
X1655304D1*
X1681682Y956257D1*
X1981682D1*
X2056682Y881257D1*
X2781682D1*
X2856682Y806257D1*
X2906682D1*
X2931682Y831257D1*
Y906257D1*
X2956682Y931257D1*
X3131682D1*
X3206682Y1006257D1*
Y1781257D1*
X2981682Y2281257D2*
X2931682Y2331257D1*
X2856682D1*
X2806682Y2381257D1*
Y2481257D1*
X2731682Y2556257D1*
X2581682D1*
Y2606257D2*
X2906682D1*
X2931682Y2581257D1*
X2981682D1*
X3031682Y2531257D1*
Y2231257D1*
X2981682Y2181257D1*
X2606682Y2081257D2*
X2781682D1*
X2831682Y2031257D1*
X2931682D1*
X2981682Y2081257D1*
X2606682Y2131257D2*
X3006682D1*
X3031682Y2106257D1*
Y2031257D1*
X2981682Y1981257D1*
X3081682Y1464328D2*
X3064753D1*
X3031682Y1431257D1*
X2931682D1*
X2881682Y1481257D1*
Y1381257D2*
X2931682Y1331257D1*
X3131682D1*
X3156682Y1356257D1*
Y1856257D1*
X3081682Y1931257D1*
X1881682Y2631257D2*
X1931682Y2581257D1*
X2031682D1*
X1731682Y2639328D2*
D3*
X2256682Y1806257D2*
X2031682D1*
X1931682Y731257D2*
D3*
X2881682Y1581257D2*
X2856682D1*
X2806682Y1531257D1*
Y1356257D1*
X2756682Y1306257D1*
X2681682D1*
X2656682Y1331257D1*
X2581682Y1031257D2*
X2506682Y956257D1*
X1731682Y731257D2*
D3*
X2981682Y1881257D2*
X2931682Y1831257D1*
X2831682D1*
X2781682Y1881257D1*
X2681682D1*
X2656682Y1906257D1*
X1856682D1*
X1806682Y1956257D1*
X1681682Y1706257D2*
Y1656257D1*
X1631682Y1606257D1*
X1331682D1*
X1306682Y1631257D1*
Y1656257D1*
X1281682Y1681257D1*
X781682D1*
X765147Y1697793D1*
X2231682Y1956257D2*
X2081682D1*
X1506682Y1656257D2*
X1456682Y1706257D1*
X856682D1*
X781682Y1781257D1*
D38*
X1006682Y1756257D3*
X1831682Y2056257D3*
X2431682Y1756257D3*
X2256682D3*
X1856682Y1806257D3*
X2431682Y1756257D3*
X1831682Y2056257D3*
X1856682Y1456257D3*
X1931682Y1206257D3*
X1206682Y1431257D3*
X2806682Y2556257D3*
X2781682Y2656257D3*
X1111407Y1110982D3*
X1031682Y1506257D3*
X1881682Y781257D3*
X2731682Y806257D3*
X2681682Y1006257D3*
X2731682Y1406257D3*
X2781682Y1081257D3*
Y1206257D3*
Y1006257D3*
X2369084Y2556257D3*
X2394084Y2081257D3*
X2619084Y2756257D3*
X2656486Y2281257D3*
X2306682D3*
X2481682Y2431257D3*
X1856682Y1206454D3*
X1531682Y681257D3*
X875001Y831257D3*
X1031879Y2831257D3*
X506682Y2331257D3*
X2294084Y2756257D3*
X1111407Y929879D3*
X3206682Y1781257D3*
X2031682Y2581257D3*
X1731682Y2639328D3*
X2256682Y1806257D3*
X2031682D3*
X1931682Y731257D3*
X2656682Y1331257D3*
X2581682Y1031257D3*
X2506682Y956257D3*
X1731682Y731257D3*
X1806682Y1956257D3*
X1681682Y1706257D3*
X2231682Y1956257D3*
X2081682D3*
X1506682Y1656257D3*
D40*
X2269182Y1356257D3*
Y1262507D3*
Y1168757D3*
X2500432Y2106257D3*
X2475433Y2575007D3*
X496684Y2881388D2*
D15*
X601669D1*
X661698D2*
X977304D1*
X1086454D2*
X1229159D1*
X1284209D2*
X2198154D1*
X2415214D2*
X2473154D1*
X2690214D2*
X3001669D1*
X3061698D2*
X3191659D1*
X496684Y2856520D2*
X541953D1*
X721415D2*
X977304D1*
X1086454D2*
X1204159D1*
X1309209D2*
X1690537D1*
X1772831D2*
X1790520D1*
X1930350D2*
X2203915D1*
X2415214D2*
X2478915D1*
X2690214D2*
X2941953D1*
X3121415D2*
X3191659D1*
X496684Y2831651D2*
X514218D1*
X749150D2*
X977304D1*
X1086454D2*
X1198154D1*
X1315214D2*
X1683017D1*
X1930350D2*
X2228134D1*
X2415214D2*
X2503134D1*
X2560234D2*
X2573150D1*
X2690214D2*
X2914218D1*
X3149150D2*
X3191659D1*
X766825Y2806782D2*
X977304D1*
X1086454D2*
X1203769D1*
X1309598D2*
X1689999D1*
X1773369D2*
X1789999D1*
X1930350D2*
X2239706D1*
X2423661D2*
X2489706D1*
X2673661D2*
X2896542D1*
X3166825D2*
X3191659D1*
X778154Y2781913D2*
X977304D1*
X1086454D2*
X1227646D1*
X1285722D2*
X1696201D1*
X1767167D2*
X1796201D1*
X1880155D2*
X2239706D1*
X2673661D2*
X2885214D1*
X3178154D2*
X3191647D1*
X784598Y2757045D2*
X1696201D1*
X1767167D2*
X1806747D1*
X1905058D2*
X2239706D1*
X2673661D2*
X2878769D1*
X786797Y2732176D2*
X1683017D1*
X1780350D2*
X1831601D1*
X1930350D2*
X2239706D1*
X2673661D2*
X2876571D1*
X784941Y2707307D2*
X1683017D1*
X1780350D2*
X1833017D1*
X1930350D2*
X2239706D1*
X2423661D2*
X2489706D1*
X2673661D2*
X2878427D1*
X778789Y2682438D2*
X867978D1*
X1057890D2*
X1683017D1*
X1780350D2*
X1833017D1*
X1930350D2*
X2300693D1*
X2437430D2*
X2884579D1*
X3178789D2*
X3191648D1*
X767850Y2657570D2*
X849374D1*
X1254081D2*
X1683017D1*
X1780350D2*
X1833017D1*
X1930350D2*
X2300693D1*
X2437430D2*
X2895517D1*
X3167850D2*
X3191659D1*
X496684Y2632701D2*
X512655D1*
X750713D2*
X843954D1*
X1279374D2*
X1683017D1*
X1780350D2*
X1833017D1*
X1930350D2*
X2300693D1*
X2437430D2*
X2513290D1*
X3150713D2*
X3191659D1*
X496684Y2607832D2*
X539413D1*
X723954D2*
X848202D1*
X1304277D2*
X1683017D1*
X1780350D2*
X1833017D1*
X2072343D2*
X2513290D1*
X3123954D2*
X3191659D1*
X496684Y2582963D2*
X593075D1*
X670293D2*
X864706D1*
X1061161D2*
X1230819D1*
X1329130D2*
X1880819D1*
X2080643D2*
X2300693D1*
X2437430D2*
X2513290D1*
X3070293D2*
X3191659D1*
X496684Y2558094D2*
X1255722D1*
X1353983D2*
X1905722D1*
X2074491D2*
X2185556D1*
X2437430D2*
X2513290D1*
X3053983D2*
X3191659D1*
X496684Y2533226D2*
X608261D1*
X655106D2*
X1280575D1*
X1378837D2*
X2160214D1*
X2437430D2*
X2513290D1*
X3067118D2*
X3191659D1*
X496684Y2508357D2*
X580136D1*
X683231D2*
X1305429D1*
X2437430D2*
X2513290D1*
X3067167D2*
X3191659D1*
X496684Y2483488D2*
X573202D1*
X690165D2*
X1330282D1*
X2437430D2*
X2513290D1*
X3067167D2*
X3191659D1*
X496684Y2458619D2*
X577938D1*
X685429D2*
X1355185D1*
X2302617D2*
X2441562D1*
X2521757D2*
X2670419D1*
X3067167D2*
X3191659D1*
X496684Y2433751D2*
X599472D1*
X663895D2*
X2208602D1*
X2279570D2*
X2432773D1*
X2530594D2*
X2670419D1*
X3067167D2*
X3191659D1*
X496684Y2408882D2*
X2208602D1*
X2279570D2*
X2410165D1*
X2524930D2*
X2771201D1*
X2932938D2*
X2996201D1*
X3067167D2*
X3191659D1*
X496684Y2384013D2*
X1639755D1*
X1723613D2*
X1813290D1*
X1950029D2*
X2208602D1*
X2279570D2*
X2385311D1*
X2483573D2*
X2771201D1*
X2940165D2*
X2996201D1*
X3067167D2*
X3191659D1*
X565214Y2359144D2*
X1619491D1*
X1743877D2*
X1813290D1*
X1950029D2*
X2208602D1*
X2279570D2*
X2360409D1*
X2458720D2*
X2779697D1*
X2951786D2*
X2996201D1*
X3067167D2*
X3191659D1*
X565214Y2334276D2*
X1613388D1*
X1749979D2*
X1813290D1*
X1950029D2*
X2208602D1*
X2436063D2*
X2527304D1*
X2711259D2*
X2804501D1*
X3067167D2*
X3191659D1*
X565214Y2309407D2*
X1617050D1*
X1746318D2*
X1813290D1*
X1950029D2*
X2208602D1*
X2711259D2*
X2829403D1*
X3067167D2*
X3191659D1*
X565214Y2284538D2*
X1632724D1*
X1730594D2*
X1813290D1*
X1950029D2*
X2208602D1*
X2711259D2*
X2823251D1*
X3067167D2*
X3191659D1*
X496684Y2259669D2*
X2208602D1*
X2711259D2*
X2827499D1*
X3067167D2*
X3191659D1*
X496684Y2234801D2*
X2208602D1*
X2436063D2*
X2527304D1*
X2711259D2*
X2847861D1*
X3067167D2*
X3191659D1*
X496684Y2209932D2*
X2208602D1*
X2279570D2*
X2325693D1*
X2462430D2*
X2831063D1*
X3059354D2*
X3113094D1*
X3150273D2*
X3191659D1*
X496684Y2185063D2*
X2186337D1*
X2278446D2*
X2325693D1*
X2462430D2*
X2823301D1*
X3040067D2*
X3081113D1*
X496684Y2160194D2*
X2161483D1*
X2259745D2*
X2325693D1*
X2462430D2*
X2538290D1*
X3036113D2*
X3061483D1*
X496684Y2135325D2*
X2146445D1*
X2234892D2*
X2538290D1*
X496684Y2110457D2*
X2146201D1*
X2217167D2*
X2325693D1*
X2462430D2*
X2538290D1*
X3166434D2*
X3191659D1*
X496684Y2085588D2*
X540487D1*
X572881D2*
X1793125D1*
X1870243D2*
X2146201D1*
X2217167D2*
X2325693D1*
X2462430D2*
X2538290D1*
X3092167D2*
X3191659D1*
X606815Y2060719D2*
X1782919D1*
X1880449D2*
X2146201D1*
X2462430D2*
X2538290D1*
X3092167D2*
X3191659D1*
X615018Y2035850D2*
X1787118D1*
X1875957D2*
X2153281D1*
X2462430D2*
X2538290D1*
X2755350D2*
X2777938D1*
X3092167D2*
X3191659D1*
X611406Y2010982D2*
X1762265D1*
X1860185D2*
X2177793D1*
X2462430D2*
X2538290D1*
X2755350D2*
X2802793D1*
X3092167D2*
X3191659D1*
X615214Y1986113D2*
X1265146D1*
X1844853D2*
X2043514D1*
X2315214D2*
X2658017D1*
X2755350D2*
X2823349D1*
X3085282D2*
X3191659D1*
X615214Y1961244D2*
X884482D1*
X941386D2*
X984482D1*
X1041386D2*
X1237509D1*
X1855399D2*
X2032969D1*
X2280399D2*
X2658017D1*
X2755350D2*
X2826865D1*
X3130350D2*
X3191659D1*
X615214Y1936375D2*
X854745D1*
X1071122D2*
X1212655D1*
X2672636D2*
X2845663D1*
X3130350D2*
X3191659D1*
X615214Y1911507D2*
X844930D1*
X1286063D2*
X1791562D1*
X2797343D2*
X2832041D1*
X3150566D2*
X3191659D1*
X615214Y1886638D2*
X845273D1*
X1261210D2*
X1827157D1*
X3175469D2*
X3191642D1*
X496684Y1861769D2*
X856014D1*
X1069853D2*
X2643710D1*
X496684Y1836900D2*
X889462D1*
X936406D2*
X977450D1*
X1048417D2*
X1819198D1*
X1894169D2*
X1994198D1*
X2294169D2*
X2620858D1*
X2742509D2*
X2776913D1*
X496684Y1812031D2*
X617294D1*
X832353D2*
X977450D1*
X1048417D2*
X1808066D1*
X1905302D2*
X1983066D1*
X2305302D2*
X2613583D1*
X2749785D2*
X2801766D1*
X496684Y1787163D2*
X588437D1*
X832353D2*
X969442D1*
X1048417D2*
X1811777D1*
X2301591D2*
X2394442D1*
X2468925D2*
X2616122D1*
X2747245D2*
X2823446D1*
X496684Y1762294D2*
X519979D1*
X849785D2*
X958066D1*
X1055302D2*
X1839022D1*
X2305302D2*
X2383066D1*
X2570341D2*
X2630136D1*
X2733231D2*
X2826474D1*
X1469950Y1737425D2*
X1644686D1*
X1718681D2*
X1876377D1*
X2301689D2*
X2386678D1*
X2591581D2*
X2844297D1*
X3067167D2*
X3089609D1*
X496684Y1712556D2*
X511972D1*
X1499541D2*
X1633114D1*
X1730253D2*
X2238290D1*
X2275077D2*
X2413290D1*
X2592167D2*
X2832724D1*
X496684Y1687688D2*
X538877D1*
X574491D2*
X588953D1*
X1543437D2*
X1636533D1*
X1726835D2*
X1819198D1*
X2430546D2*
X2521201D1*
X2592167D2*
X2823545D1*
X496684Y1662819D2*
X520469D1*
X1555205D2*
X1639121D1*
X1717167D2*
X1789121D1*
X2439823D2*
X2521201D1*
X2592167D2*
X2613290D1*
X2750029D2*
X2826278D1*
X637529Y1637950D2*
X813290D1*
X950029D2*
X1271201D1*
X1711601D2*
X1764218D1*
X2437138D2*
X2521201D1*
X2592167D2*
X2613290D1*
X2750029D2*
X2843613D1*
X612675Y1613081D2*
X789365D1*
X950029D2*
X1276669D1*
X1687675D2*
X1739365D1*
X2419902D2*
X2521201D1*
X2592167D2*
X2613290D1*
X2750029D2*
X2833066D1*
X605350Y1588213D2*
X771933D1*
X950029D2*
X1300594D1*
X1662773D2*
X1714511D1*
X2374247D2*
X2471005D1*
X2750029D2*
X2814511D1*
X605350Y1563344D2*
X771201D1*
X950029D2*
X1689609D1*
X2374247D2*
X2439609D1*
X2766386D2*
X2789609D1*
X605350Y1538475D2*
X771201D1*
X842167D2*
X1664755D1*
X2374247D2*
X2421982D1*
X2615214D2*
X2696201D1*
X496684Y1513606D2*
X771201D1*
X842167D2*
X1171738D1*
X2374247D2*
X2421201D1*
X2615214D2*
X2696201D1*
X496684Y1488738D2*
X771201D1*
X842167D2*
X1139022D1*
X2117167D2*
X2421201D1*
X2492167D2*
X2696201D1*
X496684Y1463869D2*
X771201D1*
X916093D2*
X1121786D1*
X2221122D2*
X2320614D1*
X2492167D2*
X2696201D1*
X496684Y1439000D2*
X771201D1*
X941337D2*
X1121102D1*
X2221122D2*
X2320614D1*
X2492167D2*
X2525205D1*
X496684Y1414131D2*
X771201D1*
X949589D2*
X1121102D1*
X1252421D2*
X1746201D1*
X2221122D2*
X2320614D1*
X496684Y1389262D2*
X771201D1*
X947831D2*
X1121102D1*
X1229130D2*
X1746201D1*
X1817167D2*
X1949521D1*
X2221122D2*
X2320614D1*
X496684Y1364394D2*
X771201D1*
X935038D2*
X1125937D1*
X1222929D2*
X1746201D1*
X1817167D2*
X1974423D1*
X2221122D2*
X2320614D1*
X496684Y1339525D2*
X771201D1*
X842167D2*
X1149521D1*
X1235770D2*
X1746201D1*
X1817167D2*
X1999277D1*
X2221122D2*
X2320614D1*
X496684Y1314656D2*
X771201D1*
X842167D2*
X1164853D1*
X1235819D2*
X1746201D1*
X2221122D2*
X2320614D1*
X496684Y1289787D2*
X509286D1*
X604081D2*
X771201D1*
X842167D2*
X1164853D1*
X1235819D2*
X1746201D1*
X2221122D2*
X2320614D1*
X3039579D2*
X3171201D1*
X614530Y1264919D2*
X771201D1*
X842167D2*
X1164853D1*
X1235819D2*
X1746201D1*
X2221122D2*
X2320614D1*
X3037773D2*
X3084385D1*
X612822Y1240050D2*
X771201D1*
X842167D2*
X1164853D1*
X1235819D2*
X1746201D1*
X2221122D2*
X2320614D1*
X3022147D2*
X3073837D1*
X496684Y1215181D2*
X516073D1*
X597294D2*
X771201D1*
X842167D2*
X1164853D1*
X1235819D2*
X1746201D1*
X2221122D2*
X2320614D1*
X3028789D2*
X3075497D1*
X496684Y1190312D2*
X771201D1*
X842167D2*
X1164853D1*
X1235819D2*
X1746201D1*
X2221122D2*
X2320614D1*
X3039482D2*
X3090927D1*
X496684Y1165444D2*
X771201D1*
X842167D2*
X1164853D1*
X1235819D2*
X1746201D1*
X2221122D2*
X2320614D1*
X3037919D2*
X3171201D1*
X496684Y1140575D2*
X771201D1*
X842167D2*
X1164853D1*
X1235819D2*
X1746201D1*
X1905350D2*
X1971201D1*
X2221122D2*
X2320614D1*
X3022685D2*
X3171201D1*
X496684Y1115706D2*
X771201D1*
X842167D2*
X1164853D1*
X1235819D2*
X1746201D1*
X1905350D2*
X1971201D1*
X2221122D2*
X2320614D1*
X3028349D2*
X3171201D1*
X496684Y1090837D2*
X510117D1*
X603251D2*
X771201D1*
X842167D2*
X1164853D1*
X1235819D2*
X1746201D1*
X1905350D2*
X1967098D1*
X2221122D2*
X2320614D1*
X3039385D2*
X3171201D1*
X614385Y1065969D2*
X771201D1*
X842167D2*
X979306D1*
X1234453D2*
X1746201D1*
X1905350D2*
X1942245D1*
X2221122D2*
X2320614D1*
X3038066D2*
X3171201D1*
X613114Y1041100D2*
X771201D1*
X842167D2*
X954453D1*
X1215262D2*
X1746201D1*
X1820975D2*
X1917392D1*
X2245975D2*
X2417392D1*
X3023270D2*
X3171201D1*
X496684Y1016231D2*
X514999D1*
X598369D2*
X771201D1*
X842167D2*
X929550D1*
X1027861D2*
X1749814D1*
X1845829D2*
X1892490D1*
X2270878D2*
X2392490D1*
X3027958D2*
X3167490D1*
X496684Y991362D2*
X510507D1*
X602861D2*
X771201D1*
X842167D2*
X904697D1*
X1003007D2*
X1772421D1*
X3039286D2*
X3142636D1*
X614286Y966493D2*
X771201D1*
X842167D2*
X879843D1*
X978105D2*
X1080234D1*
X1142558D2*
X1642782D1*
X3038213D2*
X3117782D1*
X613261Y941625D2*
X771201D1*
X842167D2*
X854990D1*
X953251D2*
X1063925D1*
X496684Y916756D2*
X514462D1*
X598906D2*
X771201D1*
X928398D2*
X1064315D1*
X1800029D2*
X1873690D1*
X496684Y891887D2*
X771201D1*
X917021D2*
X1082089D1*
X1140702D2*
X1663290D1*
X1800029D2*
X1864169D1*
X496684Y867018D2*
X771201D1*
X917021D2*
X1663290D1*
X1800029D2*
X1864853D1*
X1998514D2*
X2021786D1*
X496684Y842150D2*
X771201D1*
X922685D2*
X1663290D1*
X1800029D2*
X1876181D1*
X1987186D2*
X2699618D1*
X3024297D2*
X3171201D1*
X496684Y817281D2*
X771201D1*
X921854D2*
X1663290D1*
X1800029D2*
X1849765D1*
X1949882D2*
X2683993D1*
X2779374D2*
X2796493D1*
X2964042D2*
X3171201D1*
X496684Y792412D2*
X771201D1*
X903056D2*
X1834042D1*
X2778593D2*
X2821395D1*
X2941972D2*
X3171201D1*
X496684Y767543D2*
X560458D1*
X702909D2*
X771201D1*
X842167D2*
X1683017D1*
X1780350D2*
X1834774D1*
X2759941D2*
X2960458D1*
X3102909D2*
X3171201D1*
X496684Y742675D2*
X524862D1*
X738505D2*
X771201D1*
X842167D2*
X1683017D1*
X1780350D2*
X1853231D1*
X1980350D2*
X2924862D1*
X3138505D2*
X3171201D1*
X842167Y717806D2*
X1500449D1*
X1562919D2*
X1683017D1*
X1780350D2*
X1883017D1*
X1980350D2*
X2903475D1*
X842167Y692937D2*
X1444198D1*
X1579178D2*
X1683017D1*
X1780350D2*
X1883017D1*
X1980350D2*
X2889559D1*
X842167Y668068D2*
X1419345D1*
X1578789D2*
X1683017D1*
X1780350D2*
X1883017D1*
X1980350D2*
X2881063D1*
X842167Y643199D2*
X1394491D1*
X1560917D2*
X1683017D1*
X1780350D2*
X1883017D1*
X1980350D2*
X2877011D1*
X842167Y618331D2*
X1337167D1*
X1526201D2*
X1683017D1*
X1780350D2*
X1869589D1*
X1980350D2*
X2287167D1*
X2476201D2*
X2877109D1*
X842167Y593462D2*
X1324521D1*
X1538846D2*
X1698789D1*
X1811552D2*
X1848545D1*
X1980350D2*
X2274521D1*
X2488846D2*
X2881308D1*
X842167Y568593D2*
X1324618D1*
X1538749D2*
X1720224D1*
X1980350D2*
X2274618D1*
X2488749D2*
X2889999D1*
X842167Y543724D2*
X1337606D1*
X1525761D2*
X1734726D1*
X1980350D2*
X2287606D1*
X2475761D2*
X2904159D1*
X842167Y518856D2*
X1752109D1*
X1811259D2*
X1852109D1*
X1980350D2*
X2925937D1*
X843094Y493987D2*
X2962461D1*
X2139678Y1516255D2*
Y1498261D1*
X2114630D1*
X2114678Y1465584D1*
X2218623Y1465631D1*
Y1243340D1*
X2218575Y1089797D1*
X2218615Y1065987D1*
X2272997Y1011606D1*
X2281682Y1012285D1*
X2290448Y1011594D1*
X2298996Y1009542D1*
X2307118Y1006178D1*
X2314614Y1001584D1*
X2321301Y995875D1*
X2327009Y989189D1*
X2331682Y981521D1*
X2336356Y989189D1*
X2342064Y995875D1*
X2348751Y1001584D1*
X2356247Y1006178D1*
X2364369Y1009542D1*
X2372917Y1011594D1*
X2381682Y1012285D1*
X2390396Y1011601D1*
X2423710Y1044948D1*
X2423686Y1064217D1*
X2323104Y1064206D1*
Y1286497D1*
X2323152Y1414450D1*
X2323104Y1465631D1*
X2423739D1*
X2423787Y1533846D1*
X2425302Y1541454D1*
X2428549Y1548497D1*
X2433350Y1554589D1*
X2433596Y1554816D1*
X2460253Y1581348D1*
X2466702Y1585657D1*
X2473979Y1588341D1*
X2481682Y1589253D1*
X2482016Y1589240D1*
X2500677Y1589253D1*
X2500655Y1599117D1*
X2523654D1*
X2523686Y1698247D1*
X2454093Y1698362D1*
X2446486Y1699877D1*
X2439442Y1703123D1*
X2433350Y1707925D1*
X2433123Y1708171D1*
X2431521Y1709756D1*
X2424408Y1710329D1*
X2417314Y1712033D1*
X2410572Y1714825D1*
X2404350Y1718638D1*
X2398802Y1723377D1*
X2394063Y1728925D1*
X2390251Y1735147D1*
X2387458Y1741888D1*
X2385755Y1748983D1*
X2385182Y1756257D1*
X2385755Y1763531D1*
X2387458Y1770626D1*
X2390251Y1777367D1*
X2394063Y1783589D1*
X2398802Y1789138D1*
X2404350Y1793877D1*
X2410572Y1797689D1*
X2417314Y1800482D1*
X2424408Y1802185D1*
X2431682Y1802757D1*
X2438957Y1802185D1*
X2446051Y1800482D1*
X2452793Y1797689D1*
X2459014Y1793877D1*
X2464563Y1789138D1*
X2469302Y1783589D1*
X2473114Y1777367D1*
X2475907Y1770626D1*
X2477469Y1764245D1*
X2559272Y1764152D1*
X2566879Y1762638D1*
X2573923Y1759391D1*
X2580014Y1754589D1*
X2584816Y1748497D1*
X2588063Y1741454D1*
X2589577Y1733846D1*
X2589678Y1618757D1*
Y1599080D1*
X2612710Y1599117D1*
Y1494936D1*
X2500655D1*
Y1523304D1*
X2495352Y1523261D1*
X2489678Y1506257D1*
Y1410896D1*
X2510253Y1431348D1*
X2516702Y1435657D1*
X2523979Y1438341D1*
X2531682Y1439253D1*
X2532016Y1439240D1*
X2618450Y1439253D1*
X2623886Y1444657D1*
X2630297Y1449315D1*
X2637357Y1452913D1*
X2644894Y1455362D1*
X2652720Y1456601D1*
X2660644D1*
X2668471Y1455362D1*
X2676008Y1452913D1*
X2683068Y1449315D1*
X2689479Y1444657D1*
X2695083Y1439054D1*
X2696741Y1436950D1*
X2698686Y1443757D1*
Y1540388D1*
X2615812Y1540387D1*
Y1672127D1*
X2747552D1*
Y1587020D1*
X2756773Y1577686D1*
X2761083Y1571238D1*
X2763766Y1563961D1*
X2764678Y1556257D1*
X2764665Y1555924D1*
X2764678Y1439021D1*
X2769302Y1433589D1*
X2773693Y1426112D1*
X2773787Y1533846D1*
X2775302Y1541454D1*
X2778549Y1548497D1*
X2783350Y1554589D1*
X2783596Y1554816D1*
X2828928Y1600167D1*
X2831761Y1606693D1*
X2836356Y1614189D1*
X2842064Y1620875D1*
X2848751Y1626584D1*
X2856419Y1631257D1*
X2848751Y1635930D1*
X2842064Y1641639D1*
X2836356Y1648325D1*
X2831761Y1655822D1*
X2828398Y1663944D1*
X2826345Y1672492D1*
X2825655Y1681257D1*
X2826345Y1690022D1*
X2828398Y1698571D1*
X2831761Y1706693D1*
X2836356Y1714189D1*
X2842064Y1720875D1*
X2848751Y1726584D1*
X2856419Y1731257D1*
X2848751Y1735930D1*
X2842064Y1741639D1*
X2836356Y1748325D1*
X2831761Y1755822D1*
X2828398Y1763944D1*
X2826345Y1772492D1*
X2825655Y1781257D1*
X2826345Y1790022D1*
X2828365Y1798455D1*
X2821486Y1799875D1*
X2814442Y1803123D1*
X2808350Y1807925D1*
X2808123Y1808171D1*
X2767990Y1848287D1*
X2732415Y1848261D1*
X2737846Y1840675D1*
X2742538Y1831465D1*
X2745732Y1821634D1*
X2747349Y1811425D1*
Y1801089D1*
X2745732Y1790881D1*
X2742538Y1781050D1*
X2737846Y1771840D1*
X2731770Y1763478D1*
X2724462Y1756169D1*
X2716100Y1750093D1*
X2706890Y1745402D1*
X2697059Y1742207D1*
X2686850Y1740591D1*
X2676514D1*
X2666306Y1742207D1*
X2656475Y1745402D1*
X2647265Y1750093D1*
X2638903Y1756169D1*
X2631594Y1763478D1*
X2625518Y1771840D1*
X2620827Y1781050D1*
X2617633Y1790881D1*
X2616016Y1801089D1*
Y1811425D1*
X2617633Y1821634D1*
X2620827Y1831465D1*
X2625518Y1840675D1*
X2631594Y1849037D1*
X2638903Y1856345D1*
X2647265Y1862421D1*
X2651513Y1864799D1*
X2642987Y1873290D1*
X1854093Y1873364D1*
X1846486Y1874877D1*
X1839442Y1878123D1*
X1833350Y1882925D1*
X1833123Y1883171D1*
X1806524Y1909753D1*
X1799408Y1910329D1*
X1792314Y1912033D1*
X1785572Y1914825D1*
X1779350Y1918638D1*
X1773802Y1923377D1*
X1770962Y1926517D1*
X1764386Y1924173D1*
X1756682Y1923261D1*
X1295306D1*
X1246862Y1874917D1*
X1240413Y1870608D1*
X1233136Y1867924D1*
X1225433Y1867012D1*
X1225100Y1867025D1*
X1070697Y1867012D1*
X1066731Y1860920D1*
X1059954Y1852986D1*
X1052020Y1846209D1*
X1045916Y1842320D1*
X1045928Y1781209D1*
X1049643Y1774052D1*
X1051898Y1767113D1*
X1053039Y1759906D1*
Y1752609D1*
X1051898Y1745402D1*
X1049934Y1739252D1*
X1459272Y1739152D1*
X1466879Y1737638D1*
X1473923Y1734391D1*
X1480014Y1729589D1*
X1480241Y1729344D1*
X1506841Y1702761D1*
X1513957Y1702185D1*
X1521051Y1700482D1*
X1527793Y1697689D1*
X1534014Y1693877D1*
X1539563Y1689138D1*
X1544302Y1683589D1*
X1548114Y1677367D1*
X1550907Y1670626D1*
X1552610Y1663531D1*
X1553182Y1656257D1*
X1552610Y1648983D1*
X1550907Y1641888D1*
X1549934Y1639252D1*
X1618059Y1639253D1*
X1648713Y1669950D1*
X1646324Y1676058D1*
X1642034Y1681961D1*
X1638722Y1688462D1*
X1636467Y1695402D1*
X1635325Y1702609D1*
Y1709906D1*
X1636467Y1717113D1*
X1638722Y1724052D1*
X1642034Y1730554D1*
X1646324Y1736457D1*
X1651483Y1741615D1*
X1657386Y1745906D1*
X1663887Y1749218D1*
X1670827Y1751472D1*
X1678034Y1752614D1*
X1685331D1*
X1692538Y1751472D1*
X1699478Y1749218D1*
X1705979Y1745906D1*
X1711882Y1741615D1*
X1717041Y1736457D1*
X1721331Y1730554D1*
X1724643Y1724052D1*
X1726898Y1717113D1*
X1728039Y1709906D1*
Y1702609D1*
X1726898Y1695402D1*
X1724643Y1688462D1*
X1721331Y1681961D1*
X1717041Y1676058D1*
X1714669Y1673492D1*
X1714577Y1653668D1*
X1713063Y1646060D1*
X1709816Y1639017D1*
X1705014Y1632925D1*
X1704769Y1632698D1*
X1653112Y1581167D1*
X1646663Y1576857D1*
X1639386Y1574173D1*
X1631682Y1573261D1*
X1631349Y1573274D1*
X1329093Y1573362D1*
X1321486Y1574877D1*
X1314442Y1578123D1*
X1308350Y1582925D1*
X1308123Y1583171D1*
X1281592Y1609828D1*
X1277282Y1616277D1*
X1274598Y1623554D1*
X1273686Y1631257D1*
X1273699Y1631591D1*
X1273686Y1642634D1*
X1256682Y1648261D1*
X947551D1*
X947552Y1540387D1*
X839692D1*
X839678Y1456990D1*
X847265Y1462421D1*
X856475Y1467113D1*
X866306Y1470307D1*
X876514Y1471924D1*
X886850D1*
X897059Y1470307D1*
X906890Y1467113D1*
X916100Y1462421D1*
X924462Y1456345D1*
X931770Y1449037D1*
X937846Y1440675D1*
X942538Y1431465D1*
X945732Y1421634D1*
X947349Y1411425D1*
Y1401089D1*
X945732Y1390881D1*
X942538Y1381050D1*
X937846Y1371840D1*
X931770Y1363478D1*
X924462Y1356169D1*
X916100Y1350093D1*
X906890Y1345402D1*
X897059Y1342207D1*
X886850Y1340591D1*
X876514D1*
X866306Y1342207D1*
X856475Y1345402D1*
X847265Y1350093D1*
X839681Y1355556D1*
X839678Y861482D1*
X844802Y866615D1*
X848559Y869471D1*
X848646Y921644D1*
X850160Y929252D1*
X853407Y936295D1*
X858209Y942387D1*
X858454Y942614D1*
X991375Y1075409D1*
X997824Y1079719D1*
X1005101Y1082403D1*
X1012804Y1083315D1*
X1013138Y1083302D1*
X1161681Y1083315D1*
X1167328Y1100322D1*
Y1324198D1*
X1131479Y1360175D1*
X1127169Y1366623D1*
X1124486Y1373900D1*
X1123573Y1381604D1*
X1123587Y1381937D1*
X1123676Y1459734D1*
X1125189Y1467341D1*
X1128436Y1474385D1*
X1133238Y1480476D1*
X1133483Y1480703D1*
X1159253Y1506348D1*
X1165702Y1510657D1*
X1172979Y1513341D1*
X1180682Y1514253D1*
X1181016Y1514240D1*
X1643035Y1514253D1*
X1810253Y1681348D1*
X1816702Y1685657D1*
X1823979Y1688341D1*
X1831682Y1689253D1*
X1832016Y1689240D1*
X2336419Y1689253D1*
X2342064Y1695875D1*
X2348751Y1701584D1*
X2356247Y1706178D1*
X2364369Y1709542D1*
X2372917Y1711594D1*
X2381682Y1712285D1*
X2390448Y1711594D1*
X2398996Y1709542D1*
X2407118Y1706178D1*
X2414614Y1701584D1*
X2421301Y1695875D1*
X2427009Y1689189D1*
X2431604Y1681693D1*
X2434967Y1673571D1*
X2437020Y1665022D1*
X2437710Y1656257D1*
X2437020Y1647492D1*
X2434967Y1638944D1*
X2431604Y1630822D1*
X2427009Y1623325D1*
X2421301Y1616639D1*
X2414614Y1610930D1*
X2407118Y1606336D1*
X2398996Y1602972D1*
X2390448Y1600920D1*
X2381682Y1600230D1*
X2372969Y1600913D1*
X2371765Y1589942D1*
Y1510072D1*
X2216751D1*
X2208012Y1504583D1*
X2199604Y1501100D1*
X2190755Y1498975D1*
X2181682Y1498261D1*
X2172610Y1498975D1*
X2163761Y1501100D1*
X2155353Y1504583D1*
X2147593Y1509337D1*
X2140673Y1515248D1*
X2139671Y1516332D1*
X1814668Y1333348D2*
X1862911D1*
X1869055Y1336741D1*
X1876521Y1338846D1*
X1881682Y1339253D1*
X1984272Y1339152D1*
X1991879Y1337638D1*
X1998923Y1334391D1*
X2005014Y1329589D1*
X2005241Y1329344D1*
X2023900Y1310703D1*
X2026874Y1314402D1*
X1918012Y1423265D1*
X1912710Y1420848D1*
Y1404167D1*
X1814713D1*
X1814678Y1333357D1*
X2200556Y2558348D2*
X2300112D1*
Y2539256D1*
X2303214Y2542946D1*
Y2594568D1*
X2342717D1*
X2347974Y2597689D1*
X2354715Y2600482D1*
X2361810Y2602185D1*
X2369084Y2602757D1*
X2376358Y2602185D1*
X2383453Y2600482D1*
X2390194Y2597689D1*
X2395385Y2594566D1*
X2434954Y2594568D1*
Y2467946D1*
X2303214D1*
Y2473268D1*
X2300112Y2470848D1*
Y2454167D1*
X2277114D1*
X2277080Y2337262D1*
X2349075Y2337285D1*
X2351001Y2343688D1*
X2354791Y2350455D1*
X2358154Y2354392D1*
X2435182Y2431421D1*
X2435755Y2438531D1*
X2437458Y2445626D1*
X2440251Y2452367D1*
X2444063Y2458589D1*
X2448802Y2464138D1*
X2454350Y2468877D1*
X2460572Y2472689D1*
X2467314Y2475482D1*
X2474408Y2477185D1*
X2481682Y2477757D1*
X2488957Y2477185D1*
X2496051Y2475482D1*
X2502793Y2472689D1*
X2509014Y2468877D1*
X2514563Y2464138D1*
X2519302Y2458589D1*
X2523114Y2452367D1*
X2525907Y2445626D1*
X2527610Y2438531D1*
X2528182Y2431257D1*
X2527610Y2423983D1*
X2525907Y2416888D1*
X2523114Y2410147D1*
X2519302Y2403925D1*
X2514563Y2398377D1*
X2509014Y2393638D1*
X2502793Y2389825D1*
X2496051Y2387033D1*
X2488957Y2385329D1*
X2481839Y2384764D1*
X2433579Y2336490D1*
X2433576Y2314286D1*
X2529777Y2314253D1*
X2529789Y2337285D1*
X2708773D1*
Y2225230D1*
X2529789D1*
Y2248227D1*
X2433588Y2248261D1*
X2433576Y2225230D1*
X2427083D1*
X2428214Y2219568D1*
X2459954D1*
Y2142946D1*
X2328214D1*
Y2219568D1*
X2361075D1*
X2358773Y2225230D1*
X2277084D1*
X2276979Y2191070D1*
X2275465Y2183462D1*
X2272218Y2176419D1*
X2267416Y2170327D1*
X2267171Y2170100D1*
X2214693Y2117605D1*
X2214678Y2083357D1*
X2312710Y2083348D1*
Y2064256D1*
X2328215Y2064253D1*
X2328214Y2119568D1*
X2367717D1*
X2372974Y2122689D1*
X2379715Y2125482D1*
X2386810Y2127185D1*
X2394084Y2127757D1*
X2401358Y2127185D1*
X2408453Y2125482D1*
X2415194Y2122689D1*
X2420385Y2119566D1*
X2459954Y2119568D1*
Y1992946D1*
X2328214D1*
Y1998269D1*
X2312688Y1998261D1*
X2312710Y1979167D1*
X2272134D1*
X2274643Y1974052D1*
X2276898Y1967113D1*
X2278039Y1959906D1*
Y1952609D1*
X2276898Y1945402D1*
X2274934Y1939252D1*
X2659272Y1939151D1*
X2666879Y1937638D1*
X2673923Y1934391D1*
X2680014Y1929589D1*
X2680241Y1929344D1*
X2695378Y1914224D1*
X2784272Y1914152D1*
X2791879Y1912639D1*
X2798923Y1909391D1*
X2805014Y1904589D1*
X2805241Y1904344D1*
X2825696Y1883908D1*
X2827203Y1894336D1*
X2829920Y1902698D1*
X2833911Y1910531D1*
X2839079Y1917644D1*
X2845295Y1923861D1*
X2852408Y1929029D1*
X2856247Y1931336D1*
X2848751Y1935930D1*
X2842064Y1941639D1*
X2836356Y1948325D1*
X2831761Y1955822D1*
X2828398Y1963944D1*
X2826345Y1972492D1*
X2825655Y1981257D1*
X2826345Y1990022D1*
X2828365Y1998455D1*
X2821486Y1999877D1*
X2814442Y2003123D1*
X2808350Y2007925D1*
X2767990Y2048287D1*
X2703215Y2048261D1*
X2710497Y2046340D1*
X2752867D1*
Y1950033D1*
X2660497D1*
Y1992953D1*
X2540812Y1992946D1*
Y2169568D1*
X2672552D1*
Y2164245D1*
X2828314Y2164253D1*
X2826345Y2172492D1*
X2825655Y2181257D1*
X2826345Y2190022D1*
X2828398Y2198571D1*
X2831761Y2206693D1*
X2836356Y2214189D1*
X2842064Y2220875D1*
X2848751Y2226584D1*
X2856419Y2231257D1*
X2848751Y2235930D1*
X2842064Y2241639D1*
X2836356Y2248325D1*
X2831761Y2255822D1*
X2828398Y2263944D1*
X2826345Y2272492D1*
X2825655Y2281257D1*
X2826345Y2290022D1*
X2828398Y2298571D1*
X2831761Y2306693D1*
X2832777Y2308508D1*
X2781592Y2359828D1*
X2777282Y2366277D1*
X2774598Y2373554D1*
X2773686Y2381257D1*
X2773699Y2381591D1*
X2773686Y2467634D1*
X2765269Y2471340D1*
Y2425033D1*
X2672899D1*
Y2472738D1*
X2647585Y2473261D1*
X2647552Y2467946D1*
X2515812D1*
Y2644568D1*
X2647552D1*
Y2639245D1*
X2909663Y2639105D1*
X2901543Y2651508D1*
X2895686Y2661965D1*
X2890669Y2672848D1*
X2886521Y2684092D1*
X2883269Y2695626D1*
X2880930Y2707381D1*
X2879522Y2719282D1*
X2879051Y2731257D1*
X2879522Y2743232D1*
X2880930Y2755134D1*
X2883269Y2766888D1*
X2886521Y2778423D1*
X2890669Y2789667D1*
X2895686Y2800550D1*
X2901543Y2811007D1*
X2908201Y2820971D1*
X2915621Y2830383D1*
X2923756Y2839184D1*
X2932556Y2847319D1*
X2941969Y2854739D1*
X2951933Y2861396D1*
X2962390Y2867253D1*
X2973273Y2872270D1*
X2984517Y2876419D1*
X2996051Y2879671D1*
X3007806Y2882009D1*
X3019707Y2883417D1*
X3031682Y2883888D1*
X3043657Y2883417D1*
X3055559Y2882009D1*
X3067314Y2879671D1*
X3078848Y2876419D1*
X3090092Y2872270D1*
X3100975Y2867253D1*
X3111432Y2861396D1*
X3121396Y2854739D1*
X3130808Y2847319D1*
X3139609Y2839184D1*
X3147744Y2830383D1*
X3155164Y2820971D1*
X3161822Y2811007D1*
X3167678Y2800550D1*
X3172696Y2789667D1*
X3176844Y2778423D1*
X3180096Y2766888D1*
X3182434Y2755134D1*
X3183843Y2743232D1*
X3184314Y2731257D1*
X3183843Y2719282D1*
X3182434Y2707381D1*
X3180096Y2695626D1*
X3176844Y2684092D1*
X3172696Y2672848D1*
X3167678Y2661965D1*
X3161822Y2651508D1*
X3155164Y2641543D1*
X3147744Y2632131D1*
X3139609Y2623331D1*
X3130808Y2615196D1*
X3121396Y2607776D1*
X3111432Y2601118D1*
X3100975Y2595261D1*
X3090092Y2590244D1*
X3078848Y2586096D1*
X3067314Y2582844D1*
X3055559Y2580505D1*
X3043657Y2579097D1*
X3030887Y2578657D1*
X3056773Y2552686D1*
X3061083Y2546238D1*
X3063766Y2538961D1*
X3064678Y2531257D1*
X3064665Y2530924D1*
X3064577Y2228668D1*
X3063063Y2221060D1*
X3059816Y2214017D1*
X3055014Y2207925D1*
X3054769Y2207698D1*
X3037026Y2189937D1*
X3037710Y2181257D1*
X3037020Y2172492D1*
X3034967Y2163944D1*
X3031604Y2155822D1*
X3030588Y2154007D1*
X3044205Y2140399D1*
X3078928Y2175167D1*
X3081761Y2181693D1*
X3086356Y2189189D1*
X3092064Y2195875D1*
X3098751Y2201584D1*
X3106247Y2206178D1*
X3114369Y2209542D1*
X3122917Y2211594D1*
X3131682Y2212285D1*
X3140448Y2211594D1*
X3148996Y2209542D1*
X3157118Y2206178D1*
X3164614Y2201584D1*
X3171301Y2195875D1*
X3177009Y2189189D1*
X3181604Y2181693D1*
X3184967Y2173571D1*
X3187020Y2165022D1*
X3187710Y2156257D1*
X3187020Y2147492D1*
X3184967Y2138944D1*
X3181604Y2130822D1*
X3177009Y2123325D1*
X3171301Y2116639D1*
X3164614Y2110930D1*
X3157118Y2106336D1*
X3148996Y2102972D1*
X3140448Y2100920D1*
X3131682Y2100230D1*
X3122917Y2100920D1*
X3114369Y2102972D1*
X3106247Y2106336D1*
X3104432Y2107352D1*
X3089652Y2092564D1*
X3089577Y2003668D1*
X3088063Y1996060D1*
X3084816Y1989017D1*
X3080014Y1982925D1*
X3079769Y1982698D1*
X3076528Y1979438D1*
X3127867Y1979411D1*
Y1931706D1*
X3181773Y1877686D1*
X3186083Y1871238D1*
X3188766Y1863961D1*
X3189678Y1856257D1*
X3189665Y1855924D1*
X3189678Y1824568D1*
X3194194Y1826012D1*
X3194182Y2906257D1*
X2687688D1*
X2687710Y2825230D1*
X2575655D1*
Y2846567D1*
X2571301Y2841639D1*
X2564614Y2835930D1*
X2557118Y2831336D1*
X2548996Y2827972D1*
X2540448Y2825920D1*
X2531682Y2825230D1*
X2522917Y2825920D1*
X2514369Y2827972D1*
X2506247Y2831336D1*
X2498751Y2835930D1*
X2492064Y2841639D1*
X2486356Y2848325D1*
X2481761Y2855822D1*
X2478398Y2863944D1*
X2476345Y2872492D1*
X2475655Y2881257D1*
X2476345Y2890022D1*
X2478398Y2898571D1*
X2481567Y2906272D1*
X2412688Y2906257D1*
X2412710Y2825230D1*
X2384341D1*
X2394175Y2815285D1*
X2395997Y2812923D1*
X2404493Y2812285D1*
X2421175D1*
Y2789286D1*
X2492180Y2789253D1*
X2492190Y2812285D1*
X2671175D1*
Y2700230D1*
X2492190D1*
Y2723227D1*
X2421185Y2723261D1*
X2421175Y2700230D1*
X2402083D1*
X2403214Y2694568D1*
X2434954D1*
Y2617946D1*
X2303214D1*
Y2694568D1*
X2336076D1*
X2333871Y2700230D1*
X2242190D1*
Y2812285D1*
X2279055D1*
X2265365Y2825911D1*
X2256682Y2825230D1*
X2247917Y2825920D1*
X2239369Y2827972D1*
X2231247Y2831336D1*
X2223751Y2835930D1*
X2217064Y2841639D1*
X2211356Y2848325D1*
X2206761Y2855822D1*
X2203398Y2863944D1*
X2201345Y2872492D1*
X2200655Y2881257D1*
X2201345Y2890022D1*
X2203398Y2898571D1*
X2206567Y2906272D1*
X494184Y2906257D1*
Y2797517D1*
X501543Y2811007D1*
X508201Y2820971D1*
X515621Y2830383D1*
X523756Y2839184D1*
X532556Y2847319D1*
X541969Y2854739D1*
X551933Y2861396D1*
X562390Y2867253D1*
X573273Y2872270D1*
X584517Y2876419D1*
X596051Y2879671D1*
X607806Y2882009D1*
X619707Y2883417D1*
X631682Y2883888D1*
X643657Y2883417D1*
X655559Y2882009D1*
X667314Y2879671D1*
X678848Y2876419D1*
X690092Y2872270D1*
X700975Y2867253D1*
X711432Y2861396D1*
X721396Y2854739D1*
X730808Y2847319D1*
X739609Y2839184D1*
X747744Y2830383D1*
X755164Y2820971D1*
X761822Y2811007D1*
X767678Y2800550D1*
X772696Y2789667D1*
X776844Y2778423D1*
X780096Y2766888D1*
X782434Y2755134D1*
X783843Y2743232D1*
X784314Y2731257D1*
X783843Y2719282D1*
X782434Y2707381D1*
X780096Y2695626D1*
X776844Y2684092D1*
X772696Y2672848D1*
X767678Y2661965D1*
X761822Y2651508D1*
X755164Y2641543D1*
X747744Y2632131D1*
X739609Y2623331D1*
X730808Y2615196D1*
X721396Y2607776D1*
X711432Y2601118D1*
X700975Y2595261D1*
X690092Y2590244D1*
X678848Y2586096D1*
X667314Y2582844D1*
X655559Y2580505D1*
X643657Y2579097D1*
X631682Y2578626D1*
X619707Y2579097D1*
X607806Y2580505D1*
X596051Y2582844D1*
X584517Y2586096D1*
X573273Y2590244D1*
X562390Y2595261D1*
X551933Y2601118D1*
X541969Y2607776D1*
X532556Y2615196D1*
X523756Y2623331D1*
X515621Y2632131D1*
X508201Y2641543D1*
X501543Y2651508D1*
X494178Y2665238D1*
X494184Y2383552D1*
X562710Y2383545D1*
Y2279364D1*
X494205D1*
X494184Y697517D1*
X501543Y711007D1*
X508201Y720971D1*
X515621Y730383D1*
X523756Y739184D1*
X532556Y747319D1*
X541969Y754739D1*
X551933Y761396D1*
X562390Y767253D1*
X573273Y772270D1*
X584517Y776419D1*
X596051Y779671D1*
X607806Y782009D1*
X619707Y783417D1*
X631682Y783888D1*
X643657Y783417D1*
X655559Y782009D1*
X667314Y779671D1*
X678848Y776419D1*
X690092Y772270D1*
X700975Y767253D1*
X711432Y761396D1*
X721396Y754739D1*
X730808Y747319D1*
X739609Y739184D1*
X747744Y730383D1*
X755164Y720971D1*
X761822Y711007D1*
X767678Y700550D1*
X773684Y686987D1*
X773787Y1583846D1*
X775301Y1591454D1*
X778549Y1598497D1*
X783350Y1604589D1*
X783596Y1604816D1*
X810253Y1631348D1*
X814786Y1634584D1*
X815812Y1640387D1*
Y1648248D1*
X779093Y1648362D1*
X771486Y1649877D1*
X768697Y1650938D1*
X763301Y1651608D1*
X696127D1*
X689386Y1649173D1*
X681682Y1648261D1*
X681349Y1648274D1*
X645306Y1648261D1*
X602865Y1605972D1*
X602867Y1535072D1*
X510497D1*
Y1631257D1*
X511066Y1638482D1*
X512757Y1645529D1*
X515531Y1652224D1*
X519318Y1658404D1*
X524025Y1663915D1*
X529535Y1668622D1*
X535715Y1672408D1*
X542411Y1675182D1*
X549458Y1676874D1*
X556682Y1677442D1*
X563907Y1676874D1*
X570954Y1675182D1*
X576659Y1672865D1*
X610253Y1706348D1*
X616702Y1710657D1*
X623979Y1713341D1*
X631682Y1714253D1*
X632016Y1714240D1*
X650091Y1714253D1*
X650064Y1743978D1*
X666617D1*
X666600Y1748304D1*
X645369Y1748261D1*
X603112Y1706167D1*
X596663Y1701857D1*
X591499Y1699769D1*
X589340Y1698600D1*
X583829Y1693892D1*
X577650Y1690106D1*
X570954Y1687332D1*
X563907Y1685640D1*
X556682Y1685072D1*
X549458Y1685640D1*
X542411Y1687332D1*
X535715Y1690106D1*
X529535Y1693892D1*
X524025Y1698600D1*
X519318Y1704110D1*
X515531Y1710290D1*
X512757Y1716986D1*
X511066Y1724033D1*
X510497Y1731257D1*
X511066Y1738482D1*
X512757Y1745529D1*
X515531Y1752224D1*
X519318Y1758404D1*
X524025Y1763915D1*
X529535Y1768622D1*
X535715Y1772408D1*
X542411Y1775182D1*
X549458Y1776874D1*
X556682Y1777442D1*
X563907Y1776874D1*
X570954Y1775182D1*
X576659Y1772865D1*
X610253Y1806348D1*
X616702Y1810657D1*
X623979Y1813341D1*
X631682Y1814253D1*
X632016Y1814240D1*
X666594Y1814253D1*
X666600Y1827442D1*
X829836D1*
Y1779738D1*
X870373Y1739230D1*
X963371Y1739253D1*
X961467Y1745402D1*
X960325Y1752609D1*
Y1759906D1*
X961467Y1767113D1*
X963722Y1774052D1*
X967034Y1780554D1*
X971324Y1786457D1*
X976483Y1791615D1*
X979955Y1794281D1*
X979936Y1842243D1*
X973844Y1846209D1*
X965909Y1852986D1*
X962961Y1856176D1*
X956119Y1849441D1*
X947678Y1843307D1*
X938381Y1838570D1*
X928455Y1835345D1*
X918150Y1833713D1*
X907714D1*
X897408Y1835345D1*
X887483Y1838570D1*
X878185Y1843307D1*
X869744Y1849441D1*
X862365Y1856820D1*
X856231Y1865261D1*
X851493Y1874559D1*
X848269Y1884484D1*
X846636Y1894790D1*
Y1905226D1*
X848269Y1915531D1*
X851493Y1925457D1*
X856231Y1934755D1*
X862365Y1943196D1*
X869744Y1950575D1*
X878185Y1956709D1*
X887483Y1961446D1*
X897408Y1964671D1*
X907714Y1966303D1*
X918150D1*
X928455Y1964671D1*
X938381Y1961446D1*
X947678Y1956709D1*
X956119Y1950575D1*
X962903Y1943840D1*
X969744Y1950575D1*
X978185Y1956709D1*
X987483Y1961446D1*
X997408Y1964671D1*
X1007714Y1966303D1*
X1018150D1*
X1028455Y1964671D1*
X1038381Y1961446D1*
X1047678Y1956709D1*
X1056119Y1950575D1*
X1063499Y1943196D1*
X1069633Y1934755D1*
X1070619Y1932992D1*
X1211808Y1933004D1*
X1260253Y1981348D1*
X1266702Y1985657D1*
X1273979Y1988341D1*
X1281682Y1989253D1*
X1282016Y1989240D1*
X1743059Y1989253D1*
X1789802Y2036041D1*
X1787458Y2041888D1*
X1785755Y2048983D1*
X1785182Y2056257D1*
X1785755Y2063531D1*
X1787458Y2070626D1*
X1790251Y2077367D1*
X1794063Y2083589D1*
X1798802Y2089138D1*
X1804350Y2093877D1*
X1810572Y2097689D1*
X1817314Y2100482D1*
X1824408Y2102185D1*
X1831682Y2102757D1*
X1838957Y2102185D1*
X1846051Y2100482D1*
X1852793Y2097689D1*
X1859014Y2093877D1*
X1864563Y2089138D1*
X1869302Y2083589D1*
X1873114Y2077367D1*
X1875907Y2070626D1*
X1877610Y2063531D1*
X1878182Y2056257D1*
X1877610Y2048983D1*
X1875907Y2041888D1*
X1873114Y2035147D1*
X1869302Y2028925D1*
X1863442Y2022341D1*
X1861083Y2016277D1*
X1856773Y2009828D1*
X1837854Y1990765D1*
X1842041Y1986457D1*
X1846331Y1980554D1*
X1849643Y1974052D1*
X1851898Y1967113D1*
X1853039Y1959906D1*
X1853176Y1956413D1*
X1870375Y1939227D1*
X2038371Y1939253D1*
X2036467Y1945402D1*
X2035325Y1952609D1*
Y1959906D1*
X2036467Y1967113D1*
X2038722Y1974052D1*
X2042034Y1980554D1*
X2046324Y1986457D1*
X2051483Y1991615D1*
X2057386Y1995906D1*
X2063887Y1999218D1*
X2070827Y2001472D1*
X2078034Y2002614D1*
X2085331D1*
X2092538Y2001472D1*
X2099478Y1999218D1*
X2105979Y1995906D1*
X2111882Y1991615D1*
X2114448Y1989244D1*
X2198919Y1989253D1*
X2200655Y1991667D1*
Y1998844D1*
X2194055Y2000773D1*
X2187287Y2004563D1*
X2183350Y2007925D1*
X2156592Y2034828D1*
X2152282Y2041277D1*
X2149598Y2048554D1*
X2148686Y2056257D1*
X2148699Y2056591D1*
X2148787Y2133846D1*
X2150302Y2141454D1*
X2153549Y2148497D1*
X2158350Y2154589D1*
X2158596Y2154816D1*
X2211073Y2207311D1*
X2211088Y2454157D1*
X2188056Y2454167D1*
Y2466031D1*
X2178112Y2456167D1*
X2171663Y2451857D1*
X2164386Y2449173D1*
X2156682Y2448261D1*
X2156349Y2448274D1*
X1379093Y2448362D1*
X1371486Y2449877D1*
X1364442Y2453123D1*
X1358350Y2457925D1*
X1358123Y2458171D1*
X1218000Y2598277D1*
X1070696Y2598261D1*
X1066731Y2592169D1*
X1059954Y2584235D1*
X1052020Y2577458D1*
X1043122Y2572005D1*
X1033482Y2568012D1*
X1023335Y2565576D1*
X1012932Y2564757D1*
X1002529Y2565576D1*
X992382Y2568012D1*
X982741Y2572005D1*
X973844Y2577458D1*
X965909Y2584235D1*
X962961Y2587425D1*
X956119Y2580690D1*
X947678Y2574556D1*
X938381Y2569819D1*
X928455Y2566594D1*
X918150Y2564962D1*
X907714D1*
X897408Y2566594D1*
X887483Y2569819D1*
X878185Y2574556D1*
X869744Y2580690D1*
X862365Y2588070D1*
X856231Y2596511D1*
X851493Y2605808D1*
X848269Y2615734D1*
X846636Y2626039D1*
Y2636475D1*
X848269Y2646781D1*
X851493Y2656706D1*
X856231Y2666004D1*
X862365Y2674445D1*
X869744Y2681824D1*
X878185Y2687958D1*
X887483Y2692696D1*
X897408Y2695920D1*
X907714Y2697552D1*
X918150D1*
X928455Y2695920D1*
X938381Y2692696D1*
X947678Y2687958D1*
X956119Y2681824D1*
X962903Y2675089D1*
X969744Y2681824D1*
X978185Y2687958D1*
X987483Y2692696D1*
X997408Y2695920D1*
X1007714Y2697552D1*
X1018150D1*
X1028455Y2695920D1*
X1038381Y2692696D1*
X1047678Y2687958D1*
X1056119Y2681824D1*
X1063499Y2674445D1*
X1069633Y2666004D1*
X1070619Y2664241D1*
X1234272Y2664151D1*
X1241879Y2662638D1*
X1248923Y2659391D1*
X1255014Y2654589D1*
X1255241Y2654344D1*
X1395365Y2514238D1*
X2143059Y2514253D1*
X2160253Y2531348D1*
X2166702Y2535657D1*
X2173979Y2538341D1*
X2181682Y2539253D1*
X2182016Y2539240D1*
X2188079Y2539253D1*
X2188056Y2558348D1*
X2200556D1*
X1973697Y1154167D2*
X1902895D1*
X1902867Y1059264D1*
X1814664D1*
X1814678Y1044881D1*
X1845375Y1014227D1*
X1893059Y1014253D1*
X1973707Y1094945D1*
X1973686Y1154157D1*
X2975953Y489256D2*
X2962390Y495261D1*
X2951933Y501118D1*
X2941969Y507776D1*
X2932556Y515196D1*
X2923756Y523331D1*
X2915621Y532131D1*
X2908201Y541543D1*
X2901543Y551508D1*
X2895686Y561965D1*
X2890669Y572848D1*
X2886521Y584092D1*
X2883269Y595626D1*
X2880930Y607381D1*
X2879522Y619282D1*
X2879051Y631257D1*
X2879522Y643232D1*
X2880930Y655134D1*
X2883269Y666888D1*
X2886521Y678423D1*
X2890669Y689667D1*
X2895686Y700550D1*
X2901543Y711007D1*
X2908201Y720971D1*
X2915621Y730383D1*
X2923756Y739184D1*
X2932556Y747319D1*
X2941969Y754739D1*
X2951933Y761396D1*
X2962390Y767253D1*
X2973273Y772270D1*
X2984517Y776419D1*
X2996051Y779671D1*
X3007806Y782009D1*
X3019707Y783417D1*
X3031682Y783888D1*
X3043657Y783417D1*
X3055559Y782009D1*
X3067314Y779671D1*
X3078848Y776419D1*
X3090092Y772270D1*
X3100975Y767253D1*
X3111432Y761396D1*
X3121396Y754739D1*
X3130808Y747319D1*
X3139609Y739184D1*
X3147744Y730383D1*
X3155164Y720971D1*
X3161822Y711007D1*
X3167678Y700550D1*
X3173684Y686987D1*
X3173686Y842634D1*
X3156682Y848261D1*
X3026946D1*
X3021301Y841639D1*
X3014614Y835930D1*
X3007118Y831336D1*
X2998996Y827972D1*
X2990448Y825920D1*
X2981682Y825230D1*
X2972917Y825920D1*
X2964484Y827940D1*
X2963063Y821060D1*
X2959816Y814017D1*
X2955014Y807925D1*
X2928112Y781167D1*
X2921663Y776857D1*
X2914386Y774173D1*
X2906682Y773261D1*
X2906349Y773274D1*
X2854093Y773362D1*
X2846486Y774877D1*
X2839442Y778123D1*
X2833350Y782925D1*
X2833123Y783171D1*
X2767992Y848285D1*
X2761882Y841615D1*
X2767041Y836457D1*
X2771331Y830554D1*
X2774643Y824052D1*
X2776898Y817113D1*
X2778039Y809906D1*
Y802609D1*
X2776898Y795402D1*
X2774643Y788462D1*
X2771331Y781961D1*
X2767041Y776058D1*
X2761882Y770899D1*
X2755979Y766609D1*
X2749478Y763297D1*
X2742538Y761042D1*
X2735331Y759900D1*
X2731839Y759764D1*
X2726077Y754563D1*
X2719310Y750773D1*
X2711844Y748668D1*
X2706682Y748261D1*
X1977825D1*
X1978182Y731257D1*
X1977867Y716911D1*
Y616175D1*
X1961022D1*
X1956773Y609828D1*
X1949525Y602436D1*
X1977867Y602442D1*
Y510072D1*
X1881682D1*
X1874458Y510640D1*
X1867411Y512332D1*
X1860715Y515106D1*
X1854535Y518892D1*
X1849025Y523600D1*
X1844318Y529110D1*
X1840531Y535290D1*
X1837757Y541986D1*
X1836066Y549033D1*
X1835497Y556257D1*
X1836066Y563482D1*
X1837757Y570529D1*
X1840531Y577224D1*
X1844318Y583404D1*
X1849783Y589617D1*
X1852282Y596238D1*
X1856592Y602686D1*
X1885524Y631761D1*
X1885497Y725828D1*
X1885325Y734891D1*
X1878034Y734900D1*
X1870827Y736042D1*
X1863887Y738297D1*
X1857386Y741609D1*
X1851483Y745899D1*
X1846324Y751058D1*
X1842034Y756961D1*
X1838722Y763462D1*
X1836467Y770402D1*
X1835325Y777609D1*
Y784906D1*
X1836467Y792113D1*
X1838722Y799052D1*
X1842034Y805554D1*
X1846324Y811457D1*
X1851483Y816615D1*
X1857386Y820906D1*
X1863887Y824218D1*
X1870827Y826472D1*
X1878034Y827614D1*
X1885331D1*
X1892538Y826472D1*
X1897265Y825093D1*
X1888903Y831169D1*
X1881594Y838478D1*
X1875518Y846840D1*
X1870827Y856050D1*
X1867633Y865881D1*
X1866016Y876089D1*
Y886425D1*
X1867633Y896634D1*
X1870827Y906465D1*
X1875518Y915675D1*
X1880982Y923259D1*
X1797551Y923261D1*
X1797552Y815387D1*
X1665812D1*
X1665501Y898499D1*
X1657894Y896984D1*
X1467804Y896883D1*
X1144123D1*
X1138739Y892260D1*
X1132517Y888448D1*
X1125776Y885655D1*
X1118681Y883951D1*
X1111407Y883379D1*
X1104133Y883951D1*
X1097038Y885655D1*
X1090297Y888448D1*
X1084075Y892260D1*
X1078526Y896999D1*
X1073787Y902547D1*
X1069975Y908769D1*
X1067182Y915511D1*
X1065479Y922605D1*
X1064907Y929879D1*
X1065479Y937154D1*
X1067182Y944248D1*
X1069975Y950990D1*
X1073787Y957211D1*
X1078526Y962760D1*
X1084075Y967499D1*
X1090297Y971311D1*
X1097038Y974104D1*
X1104133Y975807D1*
X1111407Y976379D1*
X1118681Y975807D1*
X1125776Y974104D1*
X1132517Y971311D1*
X1138739Y967499D1*
X1144172Y962866D1*
X1641631Y962875D1*
X1660253Y981348D1*
X1666702Y985657D1*
X1673979Y988341D1*
X1681682Y989253D1*
X1682016Y989240D1*
X1777043Y989253D1*
X1756592Y1009828D1*
X1752282Y1016277D1*
X1749598Y1023554D1*
X1748686Y1031257D1*
X1748699Y1031591D1*
X1748686Y1423298D1*
X1252531Y1423261D1*
X1250907Y1416888D1*
X1248114Y1410147D1*
X1244302Y1403925D1*
X1239563Y1398377D1*
X1234014Y1393638D1*
X1227793Y1389825D1*
X1221051Y1387033D1*
X1213957Y1385329D1*
X1206682Y1384757D1*
X1199508Y1385318D1*
X1225415Y1359278D1*
X1229724Y1352829D1*
X1232408Y1345552D1*
X1233320Y1337849D1*
X1233307Y1337516D1*
X1233219Y1072732D1*
X1231705Y1065125D1*
X1228458Y1058081D1*
X1223656Y1051990D1*
X1223411Y1051762D1*
X1196751Y1025228D1*
X1190302Y1020919D1*
X1183025Y1018235D1*
X1175322Y1017323D1*
X1174988Y1017336D1*
X1026445Y1017323D1*
X914499Y905349D1*
X914650Y855554D1*
X917962Y849052D1*
X920217Y842113D1*
X921358Y834906D1*
Y827609D1*
X920217Y820402D1*
X917962Y813462D1*
X914650Y806961D1*
X910360Y801058D1*
X905201Y795899D1*
X899298Y791609D1*
X892797Y788297D1*
X885857Y786042D1*
X878650Y784900D1*
X871353D1*
X864146Y786042D1*
X857206Y788297D1*
X850705Y791609D1*
X844802Y795899D1*
X839672Y801026D1*
X839678Y494881D1*
X856682Y489253D1*
X2975774D1*
X513155Y1987285D2*
X521993D1*
X517064Y1991639D1*
X511356Y1998325D1*
X506761Y2005822D1*
X503398Y2013944D1*
X501345Y2022492D1*
X500655Y2031257D1*
X501345Y2040022D1*
X503398Y2048571D1*
X506761Y2056693D1*
X511356Y2064189D1*
X517064Y2070875D1*
X523751Y2076584D1*
X531247Y2081178D1*
X539369Y2084542D1*
X547917Y2086594D1*
X556682Y2087285D1*
X565448Y2086594D1*
X573996Y2084542D1*
X582118Y2081178D1*
X589614Y2076584D1*
X596301Y2070875D1*
X602009Y2064189D1*
X606604Y2056693D1*
X609967Y2048571D1*
X612020Y2040022D1*
X612710Y2031257D1*
X612020Y2022492D1*
X609967Y2013944D1*
X606604Y2005822D1*
X602009Y1998325D1*
X596301Y1991639D1*
X591328Y1987281D1*
X612710Y1987285D1*
Y1875230D1*
X500655D1*
Y1987285D1*
X513155D1*
X1997349Y876089D2*
X1995732Y865881D1*
X1992538Y856050D1*
X1987846Y846840D1*
X1981770Y838478D1*
X1974462Y831169D1*
X1966100Y825093D1*
X1956890Y820402D1*
X1947059Y817207D1*
X1936850Y815591D1*
X1926514D1*
X1916306Y817207D1*
X1907176Y820143D1*
X1911882Y816615D1*
X1914448Y814244D1*
X2685833Y814253D1*
X2687458Y820626D1*
X2690251Y827367D1*
X2694063Y833589D1*
X2698802Y839138D1*
X2704350Y843877D1*
X2711854Y848280D1*
X2054093Y848362D1*
X2046486Y849877D1*
X2039442Y853123D1*
X2033350Y857925D1*
X2033123Y858171D1*
X1996028Y895249D1*
X1997349Y886425D1*
Y876089D1*
X1828312Y2397127D2*
X1947552D1*
Y2265387D1*
X1815812D1*
Y2397127D1*
X1828312D1*
X1747349Y2326089D2*
X1745732Y2315881D1*
X1742538Y2306050D1*
X1737846Y2296840D1*
X1731770Y2288478D1*
X1724462Y2281169D1*
X1716100Y2275093D1*
X1706890Y2270402D1*
X1697059Y2267207D1*
X1686850Y2265591D1*
X1676514D1*
X1666306Y2267207D1*
X1656475Y2270402D1*
X1647265Y2275093D1*
X1638903Y2281169D1*
X1631594Y2288478D1*
X1625518Y2296840D1*
X1620827Y2306050D1*
X1617633Y2315881D1*
X1616016Y2326089D1*
Y2336425D1*
X1617633Y2346634D1*
X1620827Y2356465D1*
X1625518Y2365675D1*
X1631594Y2374037D1*
X1638903Y2381345D1*
X1647265Y2387421D1*
X1656475Y2392113D1*
X1666306Y2395307D1*
X1676514Y2396924D1*
X1686850D1*
X1697059Y2395307D1*
X1706890Y2392113D1*
X1716100Y2387421D1*
X1724462Y2381345D1*
X1731770Y2374037D1*
X1737846Y2365675D1*
X1742538Y2356465D1*
X1745732Y2346634D1*
X1747349Y2336425D1*
Y2326089D1*
X2937710Y2446513D2*
Y2425230D1*
X2916373D1*
X2921301Y2420875D1*
X2927009Y2414189D1*
X2931604Y2406693D1*
X2934967Y2398571D1*
X2937020Y2390022D1*
X2937710Y2381257D1*
X2937020Y2372492D1*
X2935000Y2364059D1*
X2941879Y2362638D1*
X2948923Y2359391D1*
X2955014Y2354589D1*
X2955241Y2354344D1*
X2973003Y2336601D1*
X2981682Y2337285D1*
X2990448Y2336594D1*
X2998715Y2334622D1*
X2998686Y2427888D1*
X2990448Y2425920D1*
X2981682Y2425230D1*
X2972917Y2425920D1*
X2964369Y2427972D1*
X2956247Y2431336D1*
X2948751Y2435930D1*
X2942064Y2441639D1*
X2937706Y2446612D1*
X3037537Y1276861D2*
X3036161Y1268178D1*
X3033445Y1259816D1*
X3029454Y1251983D1*
X3024286Y1244870D1*
X3018070Y1238654D1*
X3010957Y1233486D1*
X3007118Y1231178D1*
X3014614Y1226584D1*
X3021301Y1220875D1*
X3027009Y1214189D1*
X3031604Y1206693D1*
X3034967Y1198571D1*
X3037020Y1190022D1*
X3037710Y1181257D1*
X3037020Y1172492D1*
X3034967Y1163944D1*
X3031604Y1155822D1*
X3027009Y1148325D1*
X3021301Y1141639D1*
X3014614Y1135930D1*
X3006946Y1131257D1*
X3014614Y1126584D1*
X3021301Y1120875D1*
X3027009Y1114189D1*
X3031604Y1106693D1*
X3034967Y1098571D1*
X3037020Y1090022D1*
X3037710Y1081257D1*
X3037020Y1072492D1*
X3034967Y1063944D1*
X3031604Y1055822D1*
X3027009Y1048325D1*
X3021301Y1041639D1*
X3014614Y1035930D1*
X3006946Y1031257D1*
X3014614Y1026584D1*
X3021301Y1020875D1*
X3027009Y1014189D1*
X3031604Y1006693D1*
X3034967Y998571D1*
X3037020Y990022D1*
X3037710Y981257D1*
X3037020Y972492D1*
X3035047Y964224D1*
X3118059Y964253D1*
X3173710Y1019948D1*
X3173686Y1194197D1*
X3168070Y1188654D1*
X3160957Y1183486D1*
X3153123Y1179495D1*
X3144761Y1176778D1*
X3136079Y1175403D1*
X3127286D1*
X3118604Y1176778D1*
X3110241Y1179495D1*
X3102408Y1183486D1*
X3095295Y1188654D1*
X3089079Y1194870D1*
X3083911Y1201983D1*
X3079920Y1209816D1*
X3077203Y1218178D1*
X3075828Y1226861D1*
Y1235654D1*
X3077203Y1244336D1*
X3079920Y1252698D1*
X3083911Y1260531D1*
X3089079Y1267644D1*
X3095295Y1273861D1*
X3102408Y1279029D1*
X3110241Y1283020D1*
X3118604Y1285736D1*
X3127286Y1287112D1*
X3136079D1*
X3144761Y1285736D1*
X3153123Y1283020D1*
X3160957Y1279029D1*
X3168070Y1273861D1*
X3173692Y1268287D1*
X3173686Y1326618D1*
X3153112Y1306167D1*
X3146663Y1301857D1*
X3139386Y1299173D1*
X3131682Y1298261D1*
X3131349Y1298274D1*
X3035051Y1298261D1*
X3037020Y1290022D1*
X3037710Y1281257D1*
X3037537Y1276861D1*
X687537Y2476861D2*
X686161Y2468178D1*
X683445Y2459816D1*
X679454Y2451983D1*
X674286Y2444870D1*
X668070Y2438654D1*
X660957Y2433486D1*
X653123Y2429495D1*
X644761Y2426778D1*
X636079Y2425403D1*
X627286D1*
X618604Y2426778D1*
X610241Y2429495D1*
X602408Y2433486D1*
X595295Y2438654D1*
X589079Y2444870D1*
X583911Y2451983D1*
X579920Y2459816D1*
X577203Y2468178D1*
X575828Y2476861D1*
Y2485654D1*
X577203Y2494336D1*
X579920Y2502698D1*
X583911Y2510531D1*
X589079Y2517644D1*
X595295Y2523861D1*
X602408Y2529029D1*
X610241Y2533020D1*
X618604Y2535736D1*
X627286Y2537112D1*
X636079D1*
X644761Y2535736D1*
X653123Y2533020D1*
X660957Y2529029D1*
X668070Y2523861D1*
X674286Y2517644D1*
X679454Y2510531D1*
X683445Y2502698D1*
X686161Y2494336D1*
X687537Y2485654D1*
Y2476861D1*
X1431682Y555993D2*
X1427009Y548325D1*
X1421301Y541639D1*
X1414614Y535930D1*
X1407118Y531336D1*
X1398996Y527972D1*
X1390448Y525920D1*
X1381682Y525230D1*
X1372917Y525920D1*
X1364369Y527972D1*
X1356247Y531336D1*
X1348751Y535930D1*
X1342064Y541639D1*
X1336356Y548325D1*
X1331761Y555822D1*
X1328398Y563944D1*
X1326345Y572492D1*
X1325655Y581257D1*
X1326345Y590022D1*
X1328398Y598571D1*
X1331761Y606693D1*
X1336356Y614189D1*
X1342064Y620875D1*
X1348751Y626584D1*
X1356247Y631178D1*
X1364369Y634542D1*
X1372917Y636594D1*
X1381682Y637285D1*
X1390396Y636601D1*
X1460253Y706348D1*
X1466702Y710657D1*
X1473979Y713341D1*
X1481682Y714253D1*
X1482016Y714240D1*
X1498919Y714253D1*
X1504350Y718877D1*
X1510572Y722689D1*
X1517314Y725482D1*
X1524408Y727185D1*
X1531682Y727757D1*
X1538957Y727185D1*
X1546051Y725482D1*
X1552793Y722689D1*
X1559014Y718877D1*
X1564563Y714138D1*
X1569302Y708589D1*
X1573114Y702367D1*
X1575907Y695626D1*
X1577610Y688531D1*
X1578182Y681257D1*
X1577610Y673983D1*
X1575907Y666888D1*
X1573114Y660147D1*
X1569302Y653925D1*
X1564563Y648377D1*
X1559014Y643638D1*
X1552793Y639825D1*
X1546051Y637033D1*
X1538957Y635329D1*
X1531682Y634757D1*
X1524408Y635329D1*
X1517314Y637033D1*
X1510572Y639825D1*
X1504350Y643638D1*
X1498917Y648270D1*
X1494761Y635736D1*
X1503123Y633020D1*
X1510957Y629029D1*
X1518070Y623861D1*
X1524286Y617644D1*
X1529454Y610531D1*
X1533445Y602698D1*
X1536161Y594336D1*
X1537537Y585654D1*
Y576861D1*
X1536161Y568178D1*
X1533445Y559816D1*
X1529454Y551983D1*
X1524286Y544870D1*
X1518070Y538654D1*
X1510957Y533486D1*
X1503123Y529495D1*
X1494761Y526778D1*
X1486079Y525403D1*
X1477286D1*
X1468604Y526778D1*
X1460241Y529495D1*
X1452408Y533486D1*
X1445295Y538654D1*
X1439079Y544870D1*
X1433911Y551983D1*
X1431682Y555993D1*
X1312537Y2826861D2*
X1311161Y2818178D1*
X1308445Y2809816D1*
X1304454Y2801983D1*
X1299286Y2794870D1*
X1293070Y2788654D1*
X1285957Y2783486D1*
X1278123Y2779495D1*
X1269761Y2776778D1*
X1261079Y2775403D1*
X1252286D1*
X1243604Y2776778D1*
X1235241Y2779495D1*
X1227408Y2783486D1*
X1220295Y2788654D1*
X1214079Y2794870D1*
X1208911Y2801983D1*
X1204920Y2809816D1*
X1202203Y2818178D1*
X1200828Y2826861D1*
Y2835654D1*
X1202203Y2844336D1*
X1204920Y2852698D1*
X1208911Y2860531D1*
X1214079Y2867644D1*
X1220295Y2873861D1*
X1227408Y2879029D1*
X1235241Y2883020D1*
X1243604Y2885736D1*
X1252286Y2887112D1*
X1261079D1*
X1269761Y2885736D1*
X1278123Y2883020D1*
X1285957Y2879029D1*
X1293070Y2873861D1*
X1299286Y2867644D1*
X1304454Y2860531D1*
X1308445Y2852698D1*
X1311161Y2844336D1*
X1312537Y2835654D1*
Y2826861D1*
X612537Y951861D2*
X611161Y943178D1*
X608445Y934816D1*
X604454Y926983D1*
X599286Y919870D1*
X593070Y913654D1*
X585957Y908486D1*
X578123Y904495D1*
X569761Y901778D1*
X561079Y900403D1*
X552286D1*
X543604Y901778D1*
X535241Y904495D1*
X527408Y908486D1*
X520295Y913654D1*
X514079Y919870D1*
X508911Y926983D1*
X504920Y934816D1*
X502203Y943178D1*
X500828Y951861D1*
Y960654D1*
X502203Y969336D1*
X504920Y977698D1*
X508911Y985531D1*
X514079Y992644D1*
X520295Y998861D1*
X527408Y1004029D1*
X531247Y1006336D1*
X523751Y1010930D1*
X517064Y1016639D1*
X511356Y1023325D1*
X506761Y1030822D1*
X503398Y1038944D1*
X501345Y1047492D1*
X500655Y1056257D1*
X501345Y1065022D1*
X503398Y1073571D1*
X506761Y1081693D1*
X511356Y1089189D1*
X517064Y1095875D1*
X523751Y1101584D1*
X531247Y1106178D1*
X539369Y1109542D1*
X547917Y1111594D1*
X556682Y1112285D1*
X565448Y1111594D1*
X573996Y1109542D1*
X582118Y1106178D1*
X589614Y1101584D1*
X596301Y1095875D1*
X602009Y1089189D1*
X606604Y1081693D1*
X609967Y1073571D1*
X612020Y1065022D1*
X612710Y1056257D1*
X612020Y1047492D1*
X609967Y1038944D1*
X606604Y1030822D1*
X602009Y1023325D1*
X596301Y1016639D1*
X589614Y1010930D1*
X581946Y1006257D1*
X589614Y1001584D1*
X596301Y995875D1*
X602009Y989189D1*
X606604Y981693D1*
X609967Y973571D1*
X612020Y965022D1*
X612710Y956257D1*
X612537Y951861D1*
Y1251861D2*
X611161Y1243178D1*
X608445Y1234816D1*
X604454Y1226983D1*
X599286Y1219870D1*
X593070Y1213654D1*
X585957Y1208486D1*
X578123Y1204495D1*
X569761Y1201778D1*
X561079Y1200403D1*
X552286D1*
X543604Y1201778D1*
X535241Y1204495D1*
X527408Y1208486D1*
X520295Y1213654D1*
X514079Y1219870D1*
X508911Y1226983D1*
X504920Y1234816D1*
X502203Y1243178D1*
X500828Y1251861D1*
Y1260654D1*
X502203Y1269336D1*
X504920Y1277698D1*
X508911Y1285531D1*
X514079Y1292644D1*
X520295Y1298861D1*
X527408Y1304029D1*
X535241Y1308020D1*
X543604Y1310736D1*
X552286Y1312112D1*
X561079D1*
X569761Y1310736D1*
X578123Y1308020D1*
X585957Y1304029D1*
X593070Y1298861D1*
X599286Y1292644D1*
X604454Y1285531D1*
X608445Y1277698D1*
X611161Y1269336D1*
X612537Y1260654D1*
Y1251861D1*
X2381682Y555993D2*
X2377009Y548325D1*
X2371301Y541639D1*
X2364614Y535930D1*
X2357118Y531336D1*
X2348996Y527972D1*
X2340448Y525920D1*
X2331682Y525230D1*
X2322917Y525920D1*
X2314369Y527972D1*
X2306247Y531336D1*
X2298751Y535930D1*
X2292064Y541639D1*
X2286356Y548325D1*
X2281761Y555822D1*
X2278398Y563944D1*
X2276345Y572492D1*
X2275655Y581257D1*
X2276345Y590022D1*
X2278398Y598571D1*
X2281761Y606693D1*
X2286356Y614189D1*
X2292064Y620875D1*
X2298751Y626584D1*
X2306247Y631178D1*
X2314369Y634542D1*
X2322917Y636594D1*
X2331682Y637285D1*
X2340448Y636594D1*
X2348996Y634542D1*
X2357118Y631178D1*
X2364614Y626584D1*
X2371301Y620875D1*
X2377009Y614189D1*
X2381682Y606521D1*
X2386356Y614189D1*
X2392064Y620875D1*
X2398751Y626584D1*
X2406247Y631178D1*
X2414369Y634542D1*
X2422917Y636594D1*
X2431682Y637285D1*
X2440448Y636594D1*
X2448996Y634542D1*
X2457118Y631178D1*
X2464614Y626584D1*
X2471301Y620875D1*
X2477009Y614189D1*
X2481604Y606693D1*
X2484967Y598571D1*
X2487020Y590022D1*
X2487710Y581257D1*
X2487020Y572492D1*
X2484967Y563944D1*
X2481604Y555822D1*
X2477009Y548325D1*
X2471301Y541639D1*
X2464614Y535930D1*
X2457118Y531336D1*
X2448996Y527972D1*
X2440448Y525920D1*
X2431682Y525230D1*
X2422917Y525920D1*
X2414369Y527972D1*
X2406247Y531336D1*
X2398751Y535930D1*
X2392064Y541639D1*
X2386356Y548325D1*
X2381682Y555993D1*
X1847997Y2877442D2*
X1927867D1*
Y2785072D1*
X1874499D1*
X1906773Y2752686D1*
X1910009Y2748154D1*
X1922997Y2746340D1*
X1927867D1*
Y2631706D1*
X1945375Y2614227D1*
X1998919Y2614253D1*
X2004350Y2618877D1*
X2010572Y2622689D1*
X2017314Y2625482D1*
X2024408Y2627185D1*
X2031682Y2627757D1*
X2038957Y2627185D1*
X2046051Y2625482D1*
X2052793Y2622689D1*
X2059014Y2618877D1*
X2064563Y2614138D1*
X2069302Y2608589D1*
X2073114Y2602367D1*
X2075907Y2595626D1*
X2077610Y2588531D1*
X2078182Y2581257D1*
X2077610Y2573983D1*
X2075907Y2566888D1*
X2073114Y2560147D1*
X2069302Y2553925D1*
X2064563Y2548377D1*
X2059014Y2543638D1*
X2052793Y2539825D1*
X2046051Y2537033D1*
X2038957Y2535329D1*
X2031682Y2534757D1*
X2024408Y2535329D1*
X2017314Y2537033D1*
X2010572Y2539825D1*
X2004350Y2543638D1*
X1998917Y2548270D1*
X1929093Y2548362D1*
X1921486Y2549877D1*
X1914442Y2553123D1*
X1908350Y2557925D1*
X1908123Y2558171D1*
X1883181Y2583096D1*
X1835497Y2583104D1*
Y2730843D1*
X1806592Y2759828D1*
X1802282Y2766277D1*
X1799598Y2773554D1*
X1798686Y2781257D1*
X1798699Y2781591D1*
X1798686Y2798982D1*
X1794318Y2804110D1*
X1790531Y2810290D1*
X1787757Y2816986D1*
X1786066Y2824033D1*
X1785497Y2831257D1*
X1786066Y2838482D1*
X1787757Y2845529D1*
X1790531Y2852224D1*
X1794318Y2858404D1*
X1799025Y2863915D1*
X1804535Y2868622D1*
X1810715Y2872408D1*
X1817411Y2875182D1*
X1824458Y2876874D1*
X1831682Y2877442D1*
X1847997D1*
X1777726Y2827634D2*
X1776592Y2820475D1*
X1774352Y2813583D1*
X1771062Y2807126D1*
X1766802Y2801262D1*
X1764657Y2798942D1*
X1764678Y2754450D1*
X1777867Y2754411D1*
X1778039Y2642976D1*
X1777866Y2634220D1*
X1777867Y2591175D1*
X1685497D1*
X1685182Y2639328D1*
X1685497Y2653675D1*
Y2754411D1*
X1698730D1*
X1698686Y2798982D1*
X1694318Y2804110D1*
X1690531Y2810290D1*
X1687757Y2816986D1*
X1686066Y2824033D1*
X1685497Y2831257D1*
X1686066Y2838482D1*
X1687757Y2845529D1*
X1690531Y2852224D1*
X1694318Y2858404D1*
X1699025Y2863915D1*
X1704535Y2868622D1*
X1710715Y2872408D1*
X1717411Y2875182D1*
X1724458Y2876874D1*
X1731682Y2877442D1*
X1738907Y2876874D1*
X1745954Y2875182D1*
X1752650Y2872408D1*
X1758829Y2868622D1*
X1764340Y2863915D1*
X1769047Y2858404D1*
X1772833Y2852224D1*
X1775608Y2845529D1*
X1777299Y2838482D1*
X1777867Y2831257D1*
X1777726Y2827634D1*
X3073323Y1713156D2*
X3079535Y1718622D1*
X3085715Y1722408D1*
X3092411Y1725182D1*
X3099458Y1726874D1*
X3106682Y1727442D1*
X3113907Y1726874D1*
X3120954Y1725182D1*
X3123706Y1724167D1*
X3123686Y1738337D1*
X3117465Y1736348D1*
X3110306Y1735214D1*
X3103059D1*
X3095900Y1736348D1*
X3089008Y1738588D1*
X3082551Y1741878D1*
X3076688Y1746138D1*
X3071563Y1751262D1*
X3067303Y1757126D1*
X3064672Y1762155D1*
X3064678Y1709529D1*
X3071486Y1712638D1*
X3071866Y1712745D1*
X3071486Y1712638D1*
X3071866Y1712745D1*
X1827726Y552634D2*
X1826592Y545475D1*
X1824352Y538583D1*
X1821062Y532126D1*
X1816802Y526262D1*
X1811677Y521138D1*
X1805814Y516878D1*
X1799357Y513588D1*
X1792465Y511348D1*
X1785306Y510214D1*
X1778059D1*
X1770900Y511348D1*
X1764008Y513588D1*
X1757551Y516878D1*
X1751688Y521138D1*
X1746563Y526262D1*
X1742303Y532126D1*
X1739013Y538583D1*
X1736773Y545475D1*
X1735639Y552634D1*
X1735516Y555790D1*
X1706592Y584828D1*
X1702282Y591277D1*
X1699598Y598554D1*
X1698686Y606257D1*
X1698699Y606591D1*
X1698686Y616169D1*
X1685497Y616175D1*
X1685325Y727609D1*
X1685499Y736365D1*
X1685497Y779411D1*
X1777867D1*
X1778182Y731257D1*
X1777867Y716911D1*
Y616175D1*
X1768444D1*
X1782186Y602416D1*
X1788907Y601874D1*
X1795954Y600182D1*
X1802650Y597408D1*
X1808829Y593622D1*
X1814340Y588915D1*
X1819047Y583404D1*
X1822833Y577224D1*
X1825608Y570529D1*
X1827299Y563482D1*
X1827867Y556257D1*
X1827726Y552634D1*
X992289Y2887285D2*
X1083970D1*
Y2775230D1*
X979789D1*
Y2887285D1*
X992289D1*
X2223919Y1723261D2*
X1904093Y1723362D1*
X1896486Y1724875D1*
X1889442Y1728123D1*
X1883350Y1732925D1*
X1883123Y1733171D1*
X1856524Y1759753D1*
X1849408Y1760329D1*
X1842314Y1762033D1*
X1835572Y1764825D1*
X1829350Y1768638D1*
X1823802Y1773377D1*
X1819063Y1778925D1*
X1815251Y1785147D1*
X1812458Y1791888D1*
X1810755Y1798983D1*
X1810182Y1806257D1*
X1810755Y1813531D1*
X1812458Y1820626D1*
X1815251Y1827367D1*
X1819063Y1833589D1*
X1823802Y1839138D1*
X1829350Y1843877D1*
X1835572Y1847689D1*
X1842314Y1850482D1*
X1849408Y1852185D1*
X1856682Y1852757D1*
X1863957Y1852185D1*
X1871051Y1850482D1*
X1877793Y1847689D1*
X1884014Y1843877D1*
X1889563Y1839138D1*
X1894302Y1833589D1*
X1898114Y1827367D1*
X1900907Y1820626D1*
X1902610Y1813531D1*
X1903176Y1806413D1*
X1920375Y1789227D1*
X1988371Y1789253D1*
X1986467Y1795402D1*
X1985325Y1802609D1*
Y1809906D1*
X1986467Y1817113D1*
X1988722Y1824052D1*
X1992034Y1830554D1*
X1996324Y1836457D1*
X2001483Y1841615D1*
X2007386Y1845906D1*
X2013887Y1849218D1*
X2020827Y1851472D1*
X2028034Y1852614D1*
X2035331D1*
X2042538Y1851472D1*
X2049478Y1849218D1*
X2055979Y1845906D1*
X2061882Y1841615D1*
X2064448Y1839244D1*
X2223919Y1839253D1*
X2229350Y1843877D1*
X2235572Y1847689D1*
X2242314Y1850482D1*
X2249408Y1852185D1*
X2256682Y1852757D1*
X2263957Y1852185D1*
X2271051Y1850482D1*
X2277793Y1847689D1*
X2284014Y1843877D1*
X2289563Y1839138D1*
X2294302Y1833589D1*
X2298114Y1827367D1*
X2300907Y1820626D1*
X2302610Y1813531D1*
X2303182Y1806257D1*
X2302610Y1798983D1*
X2300907Y1791888D1*
X2298114Y1785147D1*
X2295878Y1781285D1*
X2299643Y1774052D1*
X2301898Y1767113D1*
X2303039Y1759906D1*
Y1752609D1*
X2301898Y1745402D1*
X2299643Y1738462D1*
X2296331Y1731961D1*
X2292041Y1726058D1*
X2286882Y1720899D1*
X2280979Y1716609D1*
X2274478Y1713297D1*
X2267538Y1711042D1*
X2260331Y1709900D1*
X2253034D1*
X2245827Y1711042D1*
X2238887Y1713297D1*
X2232386Y1716609D1*
X2226483Y1720899D1*
X2223917Y1723270D1*
X2431526Y1709764D2*
X2424408Y1710329D1*
X2417314Y1712033D1*
X2410572Y1714825D1*
X2404350Y1718638D1*
X2398802Y1723377D1*
X2394063Y1728925D1*
X2390251Y1735147D1*
X2387458Y1741888D1*
X2385755Y1748983D1*
X2385182Y1756257D1*
X2385755Y1763531D1*
X2387458Y1770626D1*
X2390251Y1777367D1*
X2394063Y1783589D1*
X2398802Y1789138D1*
X2404350Y1793877D1*
X2410572Y1797689D1*
X2417314Y1800482D1*
X2424408Y1802185D1*
X2431682Y1802757D1*
X2438957Y1802185D1*
X2446051Y1800482D1*
X2452793Y1797689D1*
X2459014Y1793877D1*
X2464563Y1789138D1*
X2469302Y1783589D1*
X2473114Y1777367D1*
X2475907Y1770626D1*
X2477469Y1764245D1*
X1789839Y2036041D2*
X1787458Y2041888D1*
X1785755Y2048983D1*
X1785182Y2056257D1*
X1785755Y2063531D1*
X1787458Y2070626D1*
X1790251Y2077367D1*
X1794063Y2083589D1*
X1798802Y2089138D1*
X1804350Y2093877D1*
X1810572Y2097689D1*
X1817314Y2100482D1*
X1824408Y2102185D1*
X1831682Y2102757D1*
X1838957Y2102185D1*
X1846051Y2100482D1*
X1852793Y2097689D1*
X1859014Y2093877D1*
X1864563Y2089138D1*
X1869302Y2083589D1*
X1873114Y2077367D1*
X1875907Y2070626D1*
X1877610Y2063531D1*
X1878182Y2056257D1*
X1877610Y2048983D1*
X1875907Y2041888D1*
X1873114Y2035147D1*
X1869302Y2028925D1*
X1863442Y2022341D1*
X1861083Y2016277D1*
X1856773Y2009828D1*
X1854769Y2007698D1*
D16*
X2081682Y1556257D3*
D17*
X2181682D3*
D16*
X1831682D3*
D17*
X1931682D3*
D18*
X1856682Y1281257D3*
Y1206454D3*
Y1456257D3*
Y1381454D3*
X2556682Y1547026D3*
Y1472223D3*
X2244084Y2506257D3*
Y2581060D3*
X2256682Y2031257D3*
Y2106060D3*
X1931682Y1206257D3*
Y1131454D3*
D19*
X2619084Y2756257D3*
X2544281D3*
X2369084D3*
X2294281D3*
X2656682Y2281257D3*
X2581879D3*
X2381486D3*
X2306682D3*
D20*
X556682Y1931257D3*
D21*
Y2031257D3*
D22*
X1731682Y881257D3*
D23*
X1831682D3*
X1931682D3*
D22*
X881682Y1606257D3*
D23*
Y1506257D3*
Y1406257D3*
D22*
X2681682Y1606257D3*
D23*
Y1706257D3*
Y1806257D3*
D22*
X1881682Y2331257D3*
D23*
X1781682D3*
X1681682D3*
D20*
X2881682Y2481257D3*
D21*
X2981682D3*
X2881682Y2381257D3*
X2981682D3*
X2881682Y2281257D3*
X2981682D3*
X2881682Y2181257D3*
X2981682D3*
X2881682Y2081257D3*
X2981682D3*
X2881682Y1981257D3*
X2981682D3*
X2881682Y1881257D3*
X2981682D3*
X2881682Y1781257D3*
X2981682D3*
X2881682Y1681257D3*
X2981682D3*
X2881682Y1581257D3*
X2981682D3*
X2881682Y1481257D3*
X2981682D3*
X2881682Y1381257D3*
X2981682D3*
X2881682Y1281257D3*
X2981682D3*
X2881682Y1181257D3*
X2981682D3*
X2881682Y1081257D3*
X2981682D3*
X2881682Y981257D3*
X2981682D3*
X2881682Y881257D3*
X2981682D3*
D20*
X2356682Y2881257D3*
D21*
X2256682D3*
D20*
X2631682D3*
D21*
X2531682D3*
D20*
X631682Y2381257D3*
D21*
Y2481257D3*
D20*
X3131682Y1131257D3*
D21*
Y1231257D3*
D20*
X1281682Y581257D3*
D21*
X1381682D3*
X1481682D3*
D20*
X3131682Y2056257D3*
D21*
Y2156257D3*
D20*
X1356682Y2831257D3*
D21*
X1256682D3*
D20*
X2481682Y1656257D3*
D21*
X2381682D3*
D20*
X556682Y856257D3*
D21*
Y956257D3*
Y1056257D3*
Y1156257D3*
Y1256257D3*
D20*
X2181682Y956257D3*
D21*
X2281682D3*
X2381682D3*
D20*
X2231682Y581257D3*
D21*
X2331682D3*
X2431682D3*
D24*
X1881682Y2831257D3*
D25*
X1831682D3*
X1781682D3*
X1731682D3*
D24*
X3106682Y1631257D3*
D25*
Y1681257D3*
Y1731257D3*
Y1781257D3*
D24*
X1931682Y556257D3*
D25*
X1881682D3*
X1831682D3*
X1781682D3*
D24*
X556682Y1581257D3*
D25*
Y1631257D3*
Y1681257D3*
Y1731257D3*
D26*
X2706682Y1931257D3*
Y1998186D3*
X2719084Y2406257D3*
Y2473186D3*
D27*
X2256682Y1556257D3*
X2323612D3*
D26*
X1856682Y1040488D3*
Y1107417D3*
X1731682Y2639328D3*
Y2706257D3*
X1881682Y2631257D3*
Y2698186D3*
X3081682Y1931257D3*
Y1864328D3*
Y1464328D3*
Y1531257D3*
X1731682Y731257D3*
Y664328D3*
X1931682Y731257D3*
Y664328D3*
D27*
X781682Y1781257D3*
X714753D3*
X765147Y1697793D3*
X698218D3*
D19*
X1106682Y2831257D3*
X1031879D3*
D18*
X506682Y2406257D3*
Y2331454D3*
D32*
X2581682Y2656257D3*
Y2606257D3*
Y2556257D3*
Y2506257D3*
X2369084D3*
Y2556257D3*
Y2606257D3*
Y2656257D3*
D33*
X2475383Y2577320D3*
D32*
X2606682Y2181257D3*
Y2131257D3*
Y2081257D3*
Y2031257D3*
X2394084D3*
Y2081257D3*
Y2131257D3*
Y2181257D3*
D33*
X2500383Y2102320D3*
D34*
X2385037Y1431257D3*
Y1405667D3*
Y1380076D3*
Y1354486D3*
Y1328895D3*
Y1303304D3*
Y1277714D3*
Y1252123D3*
Y1226533D3*
Y1200942D3*
Y1175352D3*
Y1149761D3*
Y1124171D3*
Y1098580D3*
X2156682D3*
X2156690Y1124171D3*
Y1149761D3*
Y1175352D3*
Y1200942D3*
Y1226533D3*
Y1252123D3*
Y1277714D3*
Y1303304D3*
Y1328895D3*
Y1354486D3*
Y1380076D3*
Y1405667D3*
Y1431257D3*
D35*
X2270860Y1264919D3*
D36*
X1431682Y2631257D3*
X1331682D3*
X1012932D3*
X912932D3*
Y1900008D3*
X1012932D3*
X1331682D3*
X1431682D3*
D37*
X2656682Y1406257D3*
Y1216257D3*
M02*
